Assignment2/excercise1/simulation/qsim/exercise1.msim.vcd
$comment
	File created using the following command:
		vcd file exercise1.msim.vcd -direction
$end
$date
	Thu Sep 21 10:42:10 2023
$end
$version
	ModelSim Version 2020.1
$end
$timescale
	1ps
$end

$scope module exercise1_vlg_vec_tst $end
$var reg 1 ! S0 $end
$var reg 1 " S1 $end
$var wire 1 # L0 $end
$var wire 1 $ L1 $end
$var wire 1 % L2 $end
$var wire 1 & L3 $end
$var wire 1 ' L4 $end
$var wire 1 ( L5 $end
$var wire 1 ) L6 $end

$scope module i1 $end
$var wire 1 * gnd $end
$var wire 1 + vcc $end
$var wire 1 , unknown $end
$var tri1 1 - devclrn $end
$var tri1 1 . devpor $end
$var tri1 1 / devoe $end
$var wire 1 0 ~QUARTUS_CREATED_GND~I_combout $end
$var wire 1 1 ~QUARTUS_CREATED_UNVM~~busy $end
$var wire 1 2 ~QUARTUS_CREATED_ADC1~~eoc $end
$var wire 1 3 L0~output_o $end
$var wire 1 4 L1~output_o $end
$var wire 1 5 L2~output_o $end
$var wire 1 6 L3~output_o $end
$var wire 1 7 L4~output_o $end
$var wire 1 8 L5~output_o $end
$var wire 1 9 L6~output_o $end
$var wire 1 : S0~input_o $end
$var wire 1 ; S1~input_o $end
$var wire 1 < inst~combout $end
$var wire 1 = inst4~combout $end
$var wire 1 > inst7~combout $end
$upscope $end
$upscope $end
$enddefinitions $end
#0
$dumpvars
0!
0"
0#
0$
0%
1&
1'
1(
1)
0*
1+
x,
1-
1.
1/
00
z1
z2
03
04
05
16
17
18
19
0:
0;
0<
0=
0>
$end
#5000
1"
1;
1>
1=
08
09
14
15
1%
1$
0)
0(
#10000
1!
0"
0;
1:
06
0&
#15000
1"
1;
0>
1<
07
19
13
05
0%
1#
1)
0'
#20000
0!
0"
0;
0:
16
1&
0=
0<
17
18
03
04
0$
0#
1(
1'
#25000
1"
1;
1>
1=
08
09
14
15
1%
1$
0)
0(
#30000
1!
0"
0;
1:
06
0&
#35000
1"
1;
0>
1<
07
19
13
05
0%
1#
1)
0'
#40000
0!
0"
0;
0:
16
1&
0=
0<
17
18
03
04
0$
0#
1(
1'
#45000
1"
1;
1>
1=
08
09
14
15
1%
1$
0)
0(
#50000
1!
0"
0;
1:
06
0&
#55000
1"
1;
0>
1<
07
19
13
05
0%
1#
1)
0'
#60000
0!
0"
0;
0:
16
1&
0=
0<
17
18
03
04
0$
0#
1(
1'
#65000
1"
1;
1>
1=
08
09
14
15
1%
1$
0)
0(
#70000
1!
0"
0;
1:
06
0&
#75000
1"
1;
0>
1<
07
19
13
05
0%
1#
1)
0'
#80000
0!
0"
0;
0:
16
1&
0=
0<
17
18
03
04
0$
0#
1(
1'
#85000
1"
1;
1>
1=
08
09
14
15
1%
1$
0)
0(
#90000
1!
0"
0;
1:
06
0&
#95000
1"
1;
0>
1<
07
19
13
05
0%
1#
1)
0'
#100000
0!
0"
0;
0:
16
1&
0=
0<
17
18
03
04
0$
0#
1(
1'
#105000
1"
1;
1>
1=
08
09
14
15
1%
1$
0)
0(
#110000
1!
0"
0;
1:
06
0&
#115000
1"
1;
0>
1<
07
19
13
05
0%
1#
1)
0'
#120000
0!
0"
0;
0:
16
1&
0=
0<
17
18
03
04
0$
0#
1(
1'
#125000
1"
1;
1>
1=
08
09
14
15
1%
1$
0)
0(
#130000
1!
0"
0;
1:
06
0&
#135000
1"
1;
0>
1<
07
19
13
05
0%
1#
1)
0'
#140000
0!
0"
0;
0:
16
1&
0=
0<
17
18
03
04
0$
0#
1(
1'
#145000
1"
1;
1>
1=
08
09
14
15
1%
1$
0)
0(
#150000
1!
0"
0;
1:
06
0&
#155000
1"
1;
0>
1<
07
19
13
05
0%
1#
1)
0'
#160000
0!
0"
0;
0:
16
1&
0=
0<
17
18
03
04
0$
0#
1(
1'
#165000
1"
1;
1>
1=
08
09
14
15
1%
1$
0)
0(
#170000
1!
0"
0;
1:
06
0&
#175000
1"
1;
0>
1<
07
19
13
05
0%
1#
1)
0'
#180000
0!
0"
0;
0:
16
1&
0=
0<
17
18
03
04
0$
0#
1(
1'
#185000
1"
1;
1>
1=
08
09
14
15
1%
1$
0)
0(
#190000
1!
0"
0;
1:
06
0&
#195000
1"
1;
0>
1<
07
19
13
05
0%
1#
1)
0'
#200000
0!
0"
0;
0:
16
1&
0=
0<
17
18
03
04
0$
0#
1(
1'
#205000
1"
1;
1>
1=
08
09
14
15
1%
1$
0)
0(
#210000
1!
0"
0;
1:
06
0&
#215000
1"
1;
0>
1<
07
19
13
05
0%
1#
1)
0'
#220000
0!
0"
0;
0:
16
1&
0=
0<
17
18
03
04
0$
0#
1(
1'
#225000
1"
1;
1>
1=
08
09
14
15
1%
1$
0)
0(
#230000
1!
0"
0;
1:
06
0&
#235000
1"
1;
0>
1<
07
19
13
05
0%
1#
1)
0'
#240000
0!
0"
0;
0:
16
1&
0=
0<
17
18
03
04
0$
0#
1(
1'
#245000
1"
1;
1>
1=
08
09
14
15
1%
1$
0)
0(
#250000
1!
0"
0;
1:
06
0&
#255000
1"
1;
0>
1<
07
19
13
05
0%
1#
1)
0'
#260000
0!
0"
0;
0:
16
1&
0=
0<
17
18
03
04
0$
0#
1(
1'
#265000
1"
1;
1>
1=
08
09
14
15
1%
1$
0)
0(
#270000
1!
0"
0;
1:
06
0&
#275000
1"
1;
0>
1<
07
19
13
05
0%
1#
1)
0'
#280000
0!
0"
0;
0:
16
1&
0=
0<
17
18
03
04
0$
0#
1(
1'
#285000
1"
1;
1>
1=
08
09
14
15
1%
1$
0)
0(
#290000
1!
0"
0;
1:
06
0&
#295000
1"
1;
0>
1<
07
19
13
05
0%
1#
1)
0'
#300000
0!
0"
0;
0:
16
1&
0=
0<
17
18
03
04
0$
0#
1(
1'
#305000
1"
1;
1>
1=
08
09
14
15
1%
1$
0)
0(
#310000
1!
0"
0;
1:
06
0&
#315000
1"
1;
0>
1<
07
19
13
05
0%
1#
1)
0'
#320000
0!
0"
0;
0:
16
1&
0=
0<
17
18
03
04
0$
0#
1(
1'
#325000
1"
1;
1>
1=
08
09
14
15
1%
1$
0)
0(
#330000
1!
0"
0;
1:
06
0&
#335000
1"
1;
0>
1<
07
19
13
05
0%
1#
1)
0'
#340000
0!
0"
0;
0:
16
1&
0=
0<
17
18
03
04
0$
0#
1(
1'
#345000
1"
1;
1>
1=
08
09
14
15
1%
1$
0)
0(
#350000
1!
0"
0;
1:
06
0&
#355000
1"
1;
0>
1<
07
19
13
05
0%
1#
1)
0'
#360000
0!
0"
0;
0:
16
1&
0=
0<
17
18
03
04
0$
0#
1(
1'
#365000
1"
1;
1>
1=
08
09
14
15
1%
1$
0)
0(
#370000
1!
0"
0;
1:
06
0&
#375000
1"
1;
0>
1<
07
19
13
05
0%
1#
1)
0'
#380000
0!
0"
0;
0:
16
1&
0=
0<
17
18
03
04
0$
0#
1(
1'
#385000
1"
1;
1>
1=
08
09
14
15
1%
1$
0)
0(
#390000
1!
0"
0;
1:
06
0&
#395000
1"
1;
0>
1<
07
19
13
05
0%
1#
1)
0'
#400000
0!
0"
0;
0:
16
1&
0=
0<
17
18
03
04
0$
0#
1(
1'
#405000
1"
1;
1>
1=
08
09
14
15
1%
1$
0)
0(
#410000
1!
0"
0;
1:
06
0&
#415000
1"
1;
0>
1<
07
19
13
05
0%
1#
1)
0'
#420000
0!
0"
0;
0:
16
1&
0=
0<
17
18
03
04
0$
0#
1(
1'
#425000
1"
1;
1>
1=
08
09
14
15
1%
1$
0)
0(
#430000
1!
0"
0;
1:
06
0&
#435000
1"
1;
0>
1<
07
19
13
05
0%
1#
1)
0'
#440000
0!
0"
0;
0:
16
1&
0=
0<
17
18
03
04
0$
0#
1(
1'
#445000
1"
1;
1>
1=
08
09
14
15
1%
1$
0)
0(
#450000
1!
0"
0;
1:
06
0&
#455000
1"
1;
0>
1<
07
19
13
05
0%
1#
1)
0'
#460000
0!
0"
0;
0:
16
1&
0=
0<
17
18
03
04
0$
0#
1(
1'
#465000
1"
1;
1>
1=
08
09
14
15
1%
1$
0)
0(
#470000
1!
0"
0;
1:
06
0&
#475000
1"
1;
0>
1<
07
19
13
05
0%
1#
1)
0'
#480000
0!
0"
0;
0:
16
1&
0=
0<
17
18
03
04
0$
0#
1(
1'
#485000
1"
1;
1>
1=
08
09
14
15
1%
1$
0)
0(
#490000
1!
0"
0;
1:
06
0&
#495000
1"
1;
0>
1<
07
19
13
05
0%
1#
1)
0'
#500000
0!
0"
0;
0:
16
1&
0=
0<
17
18
03
04
0$
0#
1(
1'
#505000
1"
1;
1>
1=
08
09
14
15
1%
1$
0)
0(
#510000
1!
0"
0;
1:
06
0&
#515000
1"
1;
0>
1<
07
19
13
05
0%
1#
1)
0'
#520000
0!
0"
0;
0:
16
1&
0=
0<
17
18
03
04
0$
0#
1(
1'
#525000
1"
1;
1>
1=
08
09
14
15
1%
1$
0)
0(
#530000
1!
0"
0;
1:
06
0&
#535000
1"
1;
0>
1<
07
19
13
05
0%
1#
1)
0'
#540000
0!
0"
0;
0:
16
1&
0=
0<
17
18
03
04
0$
0#
1(
1'
#545000
1"
1;
1>
1=
08
09
14
15
1%
1$
0)
0(
#550000
1!
0"
0;
1:
06
0&
#555000
1"
1;
0>
1<
07
19
13
05
0%
1#
1)
0'
#560000
0!
0"
0;
0:
16
1&
0=
0<
17
18
03
04
0$
0#
1(
1'
#565000
1"
1;
1>
1=
08
09
14
15
1%
1$
0)
0(
#570000
1!
0"
0;
1:
06
0&
#575000
1"
1;
0>
1<
07
19
13
05
0%
1#
1)
0'
#580000
0!
0"
0;
0:
16
1&
0=
0<
17
18
03
04
0$
0#
1(
1'
#585000
1"
1;
1>
1=
08
09
14
15
1%
1$
0)
0(
#590000
1!
0"
0;
1:
06
0&
#595000
1"
1;
0>
1<
07
19
13
05
0%
1#
1)
0'
#600000
0!
0"
0;
0:
16
1&
0=
0<
17
18
03
04
0$
0#
1(
1'
#605000
1"
1;
1>
1=
08
09
14
15
1%
1$
0)
0(
#610000
1!
0"
0;
1:
06
0&
#615000
1"
1;
0>
1<
07
19
13
05
0%
1#
1)
0'
#620000
0!
0"
0;
0:
16
1&
0=
0<
17
18
03
04
0$
0#
1(
1'
#625000
1"
1;
1>
1=
08
09
14
15
1%
1$
0)
0(
#630000
1!
0"
0;
1:
06
0&
#635000
1"
1;
0>
1<
07
19
13
05
0%
1#
1)
0'
#640000
0!
0"
0;
0:
16
1&
0=
0<
17
18
03
04
0$
0#
1(
1'
#645000
1"
1;
1>
1=
08
09
14
15
1%
1$
0)
0(
#650000
1!
0"
0;
1:
06
0&
#655000
1"
1;
0>
1<
07
19
13
05
0%
1#
1)
0'
#660000
0!
0"
0;
0:
16
1&
0=
0<
17
18
03
04
0$
0#
1(
1'
#665000
1"
1;
1>
1=
08
09
14
15
1%
1$
0)
0(
#670000
1!
0"
0;
1:
06
0&
#675000
1"
1;
0>
1<
07
19
13
05
0%
1#
1)
0'
#680000
0!
0"
0;
0:
16
1&
0=
0<
17
18
03
04
0$
0#
1(
1'
#685000
1"
1;
1>
1=
08
09
14
15
1%
1$
0)
0(
#690000
1!
0"
0;
1:
06
0&
#695000
1"
1;
0>
1<
07
19
13
05
0%
1#
1)
0'
#700000
0!
0"
0;
0:
16
1&
0=
0<
17
18
03
04
0$
0#
1(
1'
#705000
1"
1;
1>
1=
08
09
14
15
1%
1$
0)
0(
#710000
1!
0"
0;
1:
06
0&
#715000
1"
1;
0>
1<
07
19
13
05
0%
1#
1)
0'
#720000
0!
0"
0;
0:
16
1&
0=
0<
17
18
03
04
0$
0#
1(
1'
#725000
1"
1;
1>
1=
08
09
14
15
1%
1$
0)
0(
#730000
1!
0"
0;
1:
06
0&
#735000
1"
1;
0>
1<
07
19
13
05
0%
1#
1)
0'
#740000
0!
0"
0;
0:
16
1&
0=
0<
17
18
03
04
0$
0#
1(
1'
#745000
1"
1;
1>
1=
08
09
14
15
1%
1$
0)
0(
#750000
1!
0"
0;
1:
06
0&
#755000
1"
1;
0>
1<
07
19
13
05
0%
1#
1)
0'
#760000
0!
0"
0;
0:
16
1&
0=
0<
17
18
03
04
0$
0#
1(
1'
#765000
1"
1;
1>
1=
08
09
14
15
1%
1$
0)
0(
#770000
1!
0"
0;
1:
06
0&
#775000
1"
1;
0>
1<
07
19
13
05
0%
1#
1)
0'
#780000
0!
0"
0;
0:
16
1&
0=
0<
17
18
03
04
0$
0#
1(
1'
#785000
1"
1;
1>
1=
08
09
14
15
1%
1$
0)
0(
#790000
1!
0"
0;
1:
06
0&
#795000
1"
1;
0>
1<
07
19
13
05
0%
1#
1)
0'
#800000
0!
0"
0;
0:
16
1&
0=
0<
17
18
03
04
0$
0#
1(
1'
#805000
1"
1;
1>
1=
08
09
14
15
1%
1$
0)
0(
#810000
1!
0"
0;
1:
06
0&
#815000
1"
1;
0>
1<
07
19
13
05
0%
1#
1)
0'
#820000
0!
0"
0;
0:
16
1&
0=
0<
17
18
03
04
0$
0#
1(
1'
#825000
1"
1;
1>
1=
08
09
14
15
1%
1$
0)
0(
#830000
1!
0"
0;
1:
06
0&
#835000
1"
1;
0>
1<
07
19
13
05
0%
1#
1)
0'
#840000
0!
0"
0;
0:
16
1&
0=
0<
17
18
03
04
0$
0#
1(
1'
#845000
1"
1;
1>
1=
08
09
14
15
1%
1$
0)
0(
#850000
1!
0"
0;
1:
06
0&
#855000
1"
1;
0>
1<
07
19
13
05
0%
1#
1)
0'
#860000
0!
0"
0;
0:
16
1&
0=
0<
17
18
03
04
0$
0#
1(
1'
#865000
1"
1;
1>
1=
08
09
14
15
1%
1$
0)
0(
#870000
1!
0"
0;
1:
06
0&
#875000
1"
1;
0>
1<
07
19
13
05
0%
1#
1)
0'
#880000
0!
0"
0;
0:
16
1&
0=
0<
17
18
03
04
0$
0#
1(
1'
#885000
1"
1;
1>
1=
08
09
14
15
1%
1$
0)
0(
#890000
1!
0"
0;
1:
06
0&
#895000
1"
1;
0>
1<
07
19
13
05
0%
1#
1)
0'
#900000
0!
0"
0;
0:
16
1&
0=
0<
17
18
03
04
0$
0#
1(
1'
#905000
1"
1;
1>
1=
08
09
14
15
1%
1$
0)
0(
#910000
1!
0"
0;
1:
06
0&
#915000
1"
1;
0>
1<
07
19
13
05
0%
1#
1)
0'
#920000
0!
0"
0;
0:
16
1&
0=
0<
17
18
03
04
0$
0#
1(
1'
#925000
1"
1;
1>
1=
08
09
14
15
1%
1$
0)
0(
#930000
1!
0"
0;
1:
06
0&
#935000
1"
1;
0>
1<
07
19
13
05
0%
1#
1)
0'
#940000
0!
0"
0;
0:
16
1&
0=
0<
17
18
03
04
0$
0#
1(
1'
#945000
1"
1;
1>
1=
08
09
14
15
1%
1$
0)
0(
#950000
1!
0"
0;
1:
06
0&
#955000
1"
1;
0>
1<
07
19
13
05
0%
1#
1)
0'
#960000
0!
0"
0;
0:
16
1&
0=
0<
17
18
03
04
0$
0#
1(
1'
#965000
1"
1;
1>
1=
08
09
14
15
1%
1$
0)
0(
#970000
1!
0"
0;
1:
06
0&
#975000
1"
1;
0>
1<
07
19
13
05
0%
1#
1)
0'
#980000
0!
0"
0;
0:
16
1&
0=
0<
17
18
03
04
0$
0#
1(
1'
#985000
1"
1;
1>
1=
08
09
14
15
1%
1$
0)
0(
#990000
1!
0"
0;
1:
06
0&
#995000
1"
1;
0>
1<
07
19
13
05
0%
1#
1)
0'
