Assignment63/excercise1/simulation/qsim/exercise1.msim.vcd
$comment
	File created using the following command:
		vcd file exercise1.msim.vcd -direction
$end
$date
	Fri Oct 20 09:27:11 2023
$end
$version
	ModelSim Version 2020.1
$end
$timescale
	1ps
$end

$scope module exercise1_vlg_vec_tst $end
$var reg 1 ! CLK $end
$var reg 1 " S0 $end
$var wire 1 # A $end
$var wire 1 $ B $end
$var wire 1 % C $end
$var wire 1 & D $end
$var wire 1 ' E $end
$var wire 1 ( F $end
$var wire 1 ) G $end
$var wire 1 * L0 $end
$var wire 1 + L1 $end
$var wire 1 , L2 $end
$var wire 1 - L3 $end
$var wire 1 . L4 $end
$var wire 1 / L5 $end
$var wire 1 0 L6 $end
$var wire 1 1 L7 $end

$scope module i1 $end
$var wire 1 2 gnd $end
$var wire 1 3 vcc $end
$var wire 1 4 unknown $end
$var tri1 1 5 devclrn $end
$var tri1 1 6 devpor $end
$var tri1 1 7 devoe $end
$var wire 1 8 ~QUARTUS_CREATED_GND~I_combout $end
$var wire 1 9 ~QUARTUS_CREATED_UNVM~~busy $end
$var wire 1 : ~QUARTUS_CREATED_ADC1~~eoc $end
$var wire 1 ; A~output_o $end
$var wire 1 < B~output_o $end
$var wire 1 = C~output_o $end
$var wire 1 > D~output_o $end
$var wire 1 ? E~output_o $end
$var wire 1 @ F~output_o $end
$var wire 1 A G~output_o $end
$var wire 1 B L0~output_o $end
$var wire 1 C L1~output_o $end
$var wire 1 D L2~output_o $end
$var wire 1 E L3~output_o $end
$var wire 1 F L4~output_o $end
$var wire 1 G L5~output_o $end
$var wire 1 H L6~output_o $end
$var wire 1 I L7~output_o $end
$var wire 1 J CLK~input_o $end
$var wire 1 K CLK~inputclkctrl_outclk $end
$var wire 1 L inst3|5|3~0_combout $end
$var wire 1 M S0~input_o $end
$var wire 1 N inst3|5|3~q $end
$var wire 1 O inst3|10~combout $end
$var wire 1 P inst3|9|3~q $end
$var wire 1 Q inst3|12~combout $end
$var wire 1 R inst3|11|3~q $end
$var wire 1 S inst3|15~combout $end
$var wire 1 T inst3|14|3~q $end
$var wire 1 U inst3|40~0_combout $end
$var wire 1 V inst3|27~combout $end
$var wire 1 W inst3|25|3~q $end
$var wire 1 X inst3|118~feeder_combout $end
$var wire 1 Y inst3|118~q $end
$var wire 1 Z inst3|31~combout $end
$var wire 1 [ inst3|32|3~q $end
$var wire 1 \ inst3|36~combout $end
$var wire 1 ] inst3|37|3~q $end
$var wire 1 ^ inst3|41~0_combout $end
$var wire 1 _ inst3|41~combout $end
$var wire 1 ` inst3|42|3~q $end
$var wire 1 a inst3|125~q $end
$var wire 1 b inst3|119~feeder_combout $end
$var wire 1 c inst3|119~q $end
$var wire 1 d inst3|124~feeder_combout $end
$var wire 1 e inst3|124~q $end
$var wire 1 f inst1|81~combout $end
$var wire 1 g inst1|82~0_combout $end
$var wire 1 h inst1|83~combout $end
$var wire 1 i inst1|84~0_combout $end
$var wire 1 j inst1|85~combout $end
$var wire 1 k inst1|86~0_combout $end
$var wire 1 l inst1|87~combout $end
$var wire 1 m inst3|104~feeder_combout $end
$var wire 1 n inst3|104~q $end
$var wire 1 o inst3|105~q $end
$var wire 1 p inst3|112~q $end
$var wire 1 q inst3|113~q $end
$upscope $end
$upscope $end
$enddefinitions $end
#0
$dumpvars
0!
1"
0#
0$
0%
0&
0'
0(
1)
0*
0+
0,
0-
0.
0/
00
01
02
13
x4
15
16
17
08
z9
z:
0;
0<
0=
0>
0?
0@
1A
0B
0C
0D
0E
0F
0G
0H
0I
0J
0K
1L
1M
0N
0O
0P
0Q
0R
0S
0T
0U
0V
0W
0X
0Y
0Z
0[
0\
0]
1^
0_
0`
0a
0b
0c
0d
0e
0f
0g
0h
0i
0j
0k
1l
0m
0n
0o
0p
0q
$end
#1000
1!
1J
1K
1N
1m
1O
0L
#2000
0!
0J
0K
#3000
1!
1J
1K
1P
0N
1n
1B
1*
0m
1L
#4000
0!
0J
0K
#5000
1!
1J
1K
1N
1o
0n
0B
1C
1+
0*
1m
1Q
0O
0L
#6000
0!
0J
0K
#7000
1!
1J
1K
1R
0P
0N
1n
1B
1*
0m
1L
#8000
0!
0J
0K
#9000
1!
1J
1K
1N
1p
0o
0n
0B
0C
1D
1,
0+
0*
1m
1O
0L
#10000
0!
0J
0K
#11000
1!
1J
1K
1P
0N
1n
1B
1*
0m
1L
#12000
0!
0J
0K
#13000
1!
1J
1K
1N
1o
0n
0B
1C
1+
0*
1m
1S
0Q
0O
0L
#14000
0!
0J
0K
#15000
1!
1J
1K
1T
0R
0P
0N
1n
1B
1*
0m
1L
#16000
0!
0J
0K
#17000
1!
1J
1K
1N
1q
0p
0o
0n
0B
0C
0D
1E
1-
0,
0+
0*
1m
1O
0L
#18000
0!
0J
0K
#19000
1!
1J
1K
1P
0N
1n
1B
1*
0m
1L
#20000
0!
0J
0K
#21000
1!
1J
1K
1N
1o
0n
0B
1C
1+
0*
1m
1Q
0O
0L
#22000
0!
0J
0K
#23000
1!
1J
1K
1R
0P
0N
1n
1B
1*
0m
1L
#24000
0!
0J
0K
#25000
1!
1J
1K
1N
1p
0o
0n
0B
0C
1D
1,
0+
0*
1m
1O
0L
#26000
0!
0J
0K
#27000
1!
1J
1K
1P
0N
1n
1B
1*
0m
1L
#28000
0!
0J
0K
#29000
1!
1J
1K
1N
1o
0n
0B
1C
1U
1+
0*
1m
0S
0Q
0O
0L
1V
#30000
0!
0J
0K
#31000
1!
1J
1K
1W
0T
0R
0P
0N
1n
1B
0U
1*
1Z
1X
0V
0m
1L
0Z
1V
#32000
0!
0J
0K
#33000
1!
1J
1K
1N
0q
0p
0o
0n
1Y
1F
0B
0C
0D
0E
0-
0,
0+
0*
1.
1m
1O
0L
1k
1j
1i
1f
1;
1>
1?
1@
1(
1'
1&
1#
#34000
0!
0J
0K
#35000
1!
1J
1K
1P
0N
1n
1B
1*
0m
1L
#36000
0!
0J
0K
#37000
1!
1J
1K
1N
1o
0n
0B
1C
1+
0*
1m
1Q
0O
0L
#38000
0!
0J
0K
#39000
1!
1J
1K
1R
0P
0N
1n
1B
1*
0m
1L
#40000
0!
0J
0K
#41000
1!
1J
1K
1N
1p
0o
0n
0B
0C
1D
1,
0+
0*
1m
1O
0L
#42000
0!
0J
0K
#43000
1!
1J
1K
1P
0N
1n
1B
1*
0m
1L
#44000
0!
0J
0K
#45000
1!
1J
1K
1N
1o
0n
0B
1C
1+
0*
1m
1S
0Q
0O
0L
#46000
0!
0J
0K
#47000
1!
1J
1K
1T
0R
0P
0N
1n
1B
1*
0m
1L
#48000
0!
0J
0K
#49000
1!
1J
1K
1N
1q
0p
0o
0n
0B
0C
0D
1E
1-
0,
0+
0*
1m
1O
0L
#50000
0!
0J
0K
#51000
1!
1J
1K
1P
0N
1n
1B
1*
0m
1L
#52000
0!
0J
0K
#53000
1!
1J
1K
1N
1o
0n
0B
1C
1+
0*
1m
1Q
0O
0L
#54000
0!
0J
0K
#55000
1!
1J
1K
1R
0P
0N
1n
1B
1*
0m
1L
#56000
0!
0J
0K
#57000
1!
1J
1K
1N
1p
0o
0n
0B
0C
1D
1,
0+
0*
1m
1O
0L
#58000
0!
0J
0K
#59000
1!
1J
1K
1P
0N
1n
1B
1*
0m
1L
#60000
0!
0J
0K
#61000
1!
1J
1K
1N
1o
0n
0B
1C
1U
1+
0*
1m
0S
0Q
0O
0L
1Z
0V
#62000
0!
0J
0K
#63000
1!
1J
1K
1[
0W
0T
0R
0P
0N
1n
1B
0U
1*
1b
0X
1V
0m
1L
0V
#64000
0!
0J
0K
#65000
1!
1J
1K
1N
0q
0p
0o
0n
1c
0Y
0F
1G
0B
0C
0D
0E
0-
0,
0+
0*
1/
0.
1m
1O
0L
0l
0j
0i
1h
0f
0;
1=
0>
0?
0A
0)
0'
0&
1%
0#
#66000
0!
0J
0K
#67000
1!
1J
1K
1P
0N
1n
1B
1*
0m
1L
#68000
0!
0J
0K
#69000
1!
1J
1K
1N
1o
0n
0B
1C
1+
0*
1m
1Q
0O
0L
#70000
0!
0J
0K
#71000
1!
1J
1K
1R
0P
0N
1n
1B
1*
0m
1L
#72000
0!
0J
0K
#73000
1!
1J
1K
1N
1p
0o
0n
0B
0C
1D
1,
0+
0*
1m
1O
0L
#74000
0!
0J
0K
#75000
1!
1J
1K
1P
0N
1n
1B
1*
0m
1L
#76000
0!
0J
0K
#77000
1!
1J
1K
1N
1o
0n
0B
1C
1+
0*
1m
1S
0Q
0O
0L
#78000
0!
0J
0K
#79000
1!
1J
1K
1T
0R
0P
0N
1n
1B
1*
0m
1L
#80000
0!
0J
0K
#81000
1!
1J
1K
1N
1q
0p
0o
0n
0B
0C
0D
1E
1-
0,
0+
0*
1m
1O
0L
#82000
0!
0J
0K
#83000
1!
1J
1K
1P
0N
1n
1B
1*
0m
1L
#84000
0!
0J
0K
#85000
1!
1J
1K
1N
1o
0n
0B
1C
1+
0*
1m
1Q
0O
0L
#86000
0!
0J
0K
#87000
1!
1J
1K
1R
0P
0N
1n
1B
1*
0m
1L
#88000
0!
0J
0K
#89000
1!
1J
1K
1N
1p
0o
0n
0B
0C
1D
1,
0+
0*
1m
1O
0L
#90000
0!
0J
0K
#91000
1!
1J
1K
1P
0N
1n
1B
1*
0m
1L
#92000
0!
0J
0K
#93000
1!
1J
1K
1N
1o
0n
0B
1C
1U
1+
0*
1m
0S
0Q
0O
0L
1V
#94000
0!
0J
0K
#95000
1!
1J
1K
1W
0T
0R
0P
0N
1n
1B
0U
1*
1\
0Z
1X
0V
0m
1L
0\
1Z
1V
#96000
0!
0J
0K
#97000
1!
1J
1K
1N
0q
0p
0o
0n
1Y
1F
0B
0C
0D
0E
0-
0,
0+
0*
1.
1m
1O
0L
1j
0h
0=
1?
1'
0%
#98000
0!
0J
0K
#99000
1!
1J
1K
1P
0N
1n
1B
1*
0m
1L
#100000
0!
0J
0K
#101000
1!
1J
1K
1N
1o
0n
0B
1C
1+
0*
1m
1Q
0O
0L
#102000
0!
0J
0K
#103000
1!
1J
1K
1R
0P
0N
1n
1B
1*
0m
1L
#104000
0!
0J
0K
#105000
1!
1J
1K
1N
1p
0o
0n
0B
0C
1D
1,
0+
0*
1m
1O
0L
#106000
0!
0J
0K
#107000
1!
1J
1K
1P
0N
1n
1B
1*
0m
1L
#108000
0!
0J
0K
#109000
1!
1J
1K
1N
1o
0n
0B
1C
1+
0*
1m
1S
0Q
0O
0L
#110000
0!
0J
0K
#111000
1!
1J
1K
1T
0R
0P
0N
1n
1B
1*
0m
1L
#112000
0!
0J
0K
#113000
1!
1J
1K
1N
1q
0p
0o
0n
0B
0C
0D
1E
1-
0,
0+
0*
1m
1O
0L
#114000
0!
0J
0K
#115000
1!
1J
1K
1P
0N
1n
1B
1*
0m
1L
#116000
0!
0J
0K
#117000
1!
1J
1K
1N
1o
0n
0B
1C
1+
0*
1m
1Q
0O
0L
#118000
0!
0J
0K
#119000
1!
1J
1K
1R
0P
0N
1n
1B
1*
0m
1L
#120000
0!
0J
0K
#121000
1!
1J
1K
1N
1p
0o
0n
0B
0C
1D
1,
0+
0*
1m
1O
0L
#122000
0!
0J
0K
#123000
1!
1J
1K
1P
0N
1n
1B
1*
0m
1L
#124000
0!
0J
0K
#125000
1!
1J
1K
1N
1o
0n
0B
1C
1U
1+
0*
1m
0S
0Q
0O
0L
1\
0Z
0V
#126000
0!
0J
0K
#127000
1!
1J
1K
1]
0[
0W
0T
0R
0P
0N
1n
1B
0U
1*
1d
0b
0X
1V
0m
1L
0V
#128000
0!
0J
0K
#129000
1!
1J
1K
1N
0q
0p
0o
0n
1e
0c
0Y
0F
0G
1H
0B
0C
0D
0E
0-
0,
0+
0*
10
0/
0.
1m
1O
0L
0k
1i
1f
1;
1>
0@
0(
1&
1#
#130000
0!
0J
0K
#131000
1!
1J
1K
1P
0N
1n
1B
1*
0m
1L
#132000
0!
0J
0K
#133000
1!
1J
1K
1N
1o
0n
0B
1C
1+
0*
1m
1Q
0O
0L
#134000
0!
0J
0K
#135000
1!
1J
1K
1R
0P
0N
1n
1B
1*
0m
1L
#136000
0!
0J
0K
#137000
1!
1J
1K
1N
1p
0o
0n
0B
0C
1D
1,
0+
0*
1m
1O
0L
#138000
0!
0J
0K
#139000
1!
1J
1K
1P
0N
1n
1B
1*
0m
1L
#140000
0!
0J
0K
#141000
1!
1J
1K
1N
1o
0n
0B
1C
1+
0*
1m
1S
0Q
0O
0L
#142000
0!
0J
0K
#143000
1!
1J
1K
1T
0R
0P
0N
1n
1B
1*
0m
1L
#144000
0!
0J
0K
#145000
1!
1J
1K
1N
1q
0p
0o
0n
0B
0C
0D
1E
1-
0,
0+
0*
1m
1O
0L
#146000
0!
0J
0K
#147000
1!
1J
1K
1P
0N
1n
1B
1*
0m
1L
#148000
0!
0J
0K
#149000
1!
1J
1K
1N
1o
0n
0B
1C
1+
0*
1m
1Q
0O
0L
#150000
0!
0J
0K
#151000
1!
1J
1K
1R
0P
0N
1n
1B
1*
0m
1L
#152000
0!
0J
0K
#153000
1!
1J
1K
1N
1p
0o
0n
0B
0C
1D
1,
0+
0*
1m
1O
0L
#154000
0!
0J
0K
#155000
1!
1J
1K
1P
0N
1n
1B
1*
0m
1L
#156000
0!
0J
0K
#157000
1!
1J
1K
1N
1o
0n
0B
1C
1U
1+
0*
1m
0S
0Q
0O
0L
1V
#158000
0!
0J
0K
#159000
1!
1J
1K
1W
0T
0R
0P
0N
1n
1B
0U
1*
1Z
1X
0V
0m
1L
0Z
1V
#160000
0!
0J
0K
#161000
1!
1J
1K
1N
0q
0p
0o
0n
1Y
1F
0B
0C
0D
0E
0-
0,
0+
0*
1.
1m
1O
0L
0i
1g
0f
0;
1<
0>
0&
1$
0#
#162000
0!
0J
0K
#163000
1!
1J
1K
1P
0N
1n
1B
1*
0m
1L
#164000
0!
0J
0K
#165000
1!
1J
1K
1N
1o
0n
0B
1C
1+
0*
1m
1Q
0O
0L
#166000
0!
0J
0K
#167000
1!
1J
1K
1R
0P
0N
1n
1B
1*
0m
1L
#168000
0!
0J
0K
#169000
1!
1J
1K
1N
1p
0o
0n
0B
0C
1D
1,
0+
0*
1m
1O
0L
#170000
0!
0J
0K
#171000
1!
1J
1K
1P
0N
1n
1B
1*
0m
1L
#172000
0!
0J
0K
#173000
1!
1J
1K
1N
1o
0n
0B
1C
1+
0*
1m
1S
0Q
0O
0L
#174000
0!
0J
0K
#175000
1!
1J
1K
1T
0R
0P
0N
1n
1B
1*
0m
1L
#176000
0!
0J
0K
#177000
1!
1J
1K
1N
1q
0p
0o
0n
0B
0C
0D
1E
1-
0,
0+
0*
1m
1O
0L
#178000
0!
0J
0K
#179000
1!
1J
1K
1P
0N
1n
1B
1*
0m
1L
#180000
0!
0J
0K
#181000
1!
1J
1K
1N
1o
0n
0B
1C
1+
0*
1m
1Q
0O
0L
#182000
0!
0J
0K
#183000
1!
1J
1K
1R
0P
0N
1n
1B
1*
0m
1L
#184000
0!
0J
0K
#185000
1!
1J
1K
1N
1p
0o
0n
0B
0C
1D
1,
0+
0*
1m
1O
0L
#186000
0!
0J
0K
#187000
1!
1J
1K
1P
0N
1n
1B
1*
0m
1L
#188000
0!
0J
0K
#189000
1!
1J
1K
1N
1o
0n
0B
1C
1U
1+
0*
1m
0S
0Q
0O
0L
1Z
0V
#190000
0!
0J
0K
#191000
1!
1J
1K
1[
0W
0T
0R
0P
0N
1n
1B
0^
0U
1*
1b
0X
1V
0m
1L
0V
#192000
0!
0J
0K
#193000
1!
1J
1K
1N
0q
0p
0o
0n
1c
0Y
0F
1G
0B
0C
0D
0E
0-
0,
0+
0*
1/
0.
1m
1O
0L
0j
1f
1;
0?
0'
1#
#194000
0!
0J
0K
#195000
1!
1J
1K
1P
0N
1n
1B
1*
0m
1L
#196000
0!
0J
0K
#197000
1!
1J
1K
1N
1o
0n
0B
1C
1+
0*
1m
1Q
0O
0L
#198000
0!
0J
0K
#199000
1!
1J
1K
1R
0P
0N
1n
1B
1*
0m
1L
#200000
0!
0J
0K
#201000
1!
1J
1K
1N
1p
0o
0n
0B
0C
1D
1,
0+
0*
1m
1O
0L
#202000
0!
0J
0K
#203000
1!
1J
1K
1P
0N
1n
1B
1*
0m
1L
#204000
0!
0J
0K
#205000
1!
1J
1K
1N
1o
0n
0B
1C
1+
0*
1m
1S
0Q
0O
0L
#206000
0!
0J
0K
#207000
1!
1J
1K
1T
0R
0P
0N
1n
1B
1*
0m
1L
#208000
0!
0J
0K
#209000
1!
1J
1K
1N
1q
0p
0o
0n
0B
0C
0D
1E
1-
0,
0+
0*
1m
1O
0L
#210000
0!
0J
0K
#211000
1!
1J
1K
1P
0N
1n
1B
1*
0m
1L
#212000
0!
0J
0K
#213000
1!
1J
1K
1N
1o
0n
0B
1C
1+
0*
1m
1Q
0O
0L
#214000
0!
0J
0K
#215000
1!
1J
1K
1R
0P
0N
1n
1B
1*
0m
1L
#216000
0!
0J
0K
#217000
1!
1J
1K
1N
1p
0o
0n
0B
0C
1D
1,
0+
0*
1m
1O
0L
#218000
0!
0J
0K
#219000
1!
1J
1K
1P
0N
1n
1B
1*
0m
1L
#220000
0!
0J
0K
#221000
1!
1J
1K
1N
1o
0n
0B
1C
1U
1+
0*
1m
0S
0Q
0O
0L
1V
#222000
0!
0J
0K
#223000
1!
1J
1K
1W
0T
0R
0P
0N
1n
1B
0U
1*
1_
0\
0Z
1X
0V
0m
1L
0_
1\
1Z
1V
#224000
0!
0J
0K
#225000
1!
1J
1K
1N
0q
0p
0o
0n
1Y
1F
0B
0C
0D
0E
0-
0,
0+
0*
1.
1m
1O
0L
1l
1k
1j
1i
0g
0f
0;
0<
1>
1?
1@
1A
1)
1(
1'
1&
0$
0#
#226000
0!
0J
0K
#227000
1!
1J
1K
1P
0N
1n
1B
1*
0m
1L
#228000
0!
0J
0K
#229000
1!
1J
1K
1N
1o
0n
0B
1C
1+
0*
1m
1Q
0O
0L
#230000
0!
0J
0K
#231000
1!
1J
1K
1R
0P
0N
1n
1B
1*
0m
1L
#232000
0!
0J
0K
#233000
1!
1J
1K
1N
1p
0o
0n
0B
0C
1D
1,
0+
0*
1m
1O
0L
#234000
0!
0J
0K
#235000
1!
1J
1K
1P
0N
1n
1B
1*
0m
1L
#236000
0!
0J
0K
#237000
1!
1J
1K
1N
1o
0n
0B
1C
1+
0*
1m
1S
0Q
0O
0L
#238000
0!
0J
0K
#239000
1!
1J
1K
1T
0R
0P
0N
1n
1B
1*
0m
1L
#240000
0!
0J
0K
#241000
1!
1J
1K
1N
1q
0p
0o
0n
0B
0C
0D
1E
1-
0,
0+
0*
1m
1O
0L
#242000
0!
0J
0K
#243000
1!
1J
1K
1P
0N
1n
1B
1*
0m
1L
#244000
0!
0J
0K
#245000
1!
1J
1K
1N
1o
0n
0B
1C
1+
0*
1m
1Q
0O
0L
#246000
0!
0J
0K
#247000
1!
1J
1K
1R
0P
0N
1n
1B
1*
0m
1L
#248000
0!
0J
0K
#249000
1!
1J
1K
1N
1p
0o
0n
0B
0C
1D
1,
0+
0*
1m
1O
0L
#250000
0!
0J
0K
#251000
1!
1J
1K
1P
0N
1n
1B
1*
0m
1L
#252000
0!
0J
0K
#253000
1!
1J
1K
1N
1o
0n
0B
1C
1U
1+
0*
1m
0S
0Q
0O
0L
1_
0\
0Z
0V
#254000
0!
0J
0K
#255000
1!
1J
1K
1`
0]
0[
0W
0T
0R
0P
0N
1n
1B
1^
0U
1*
0d
0b
0X
1V
0m
1L
0V
#256000
0!
0J
0K
#257000
1!
1J
1K
1N
0q
0p
0o
0n
0e
0c
1a
0Y
0F
1I
0G
0H
0B
0C
0D
0E
0-
0,
0+
0*
00
0/
11
0.
1m
1O
0L
0l
0k
0j
0i
0>
0?
0@
0A
0)
0(
0'
0&
#258000
0!
0J
0K
#259000
1!
1J
1K
1P
0N
1n
1B
1*
0m
1L
#260000
0!
0J
0K
#261000
1!
1J
1K
1N
1o
0n
0B
1C
1+
0*
1m
1Q
0O
0L
#262000
0!
0J
0K
#263000
1!
1J
1K
1R
0P
0N
1n
1B
1*
0m
1L
#264000
0!
0J
0K
#265000
1!
1J
1K
1N
1p
0o
0n
0B
0C
1D
1,
0+
0*
1m
1O
0L
#266000
0!
0J
0K
#267000
1!
1J
1K
1P
0N
1n
1B
1*
0m
1L
#268000
0!
0J
0K
#269000
1!
1J
1K
1N
1o
0n
0B
1C
1+
0*
1m
1S
0Q
0O
0L
#270000
0!
0J
0K
#271000
1!
1J
1K
1T
0R
0P
0N
1n
1B
1*
0m
1L
#272000
0!
0J
0K
#273000
1!
1J
1K
1N
1q
0p
0o
0n
0B
0C
0D
1E
1-
0,
0+
0*
1m
1O
0L
#274000
0!
0J
0K
#275000
1!
1J
1K
1P
0N
1n
1B
1*
0m
1L
#276000
0!
0J
0K
#277000
1!
1J
1K
1N
1o
0n
0B
1C
1+
0*
1m
1Q
0O
0L
#278000
0!
0J
0K
#279000
1!
1J
1K
1R
0P
0N
1n
1B
1*
0m
1L
#280000
0!
0J
0K
#281000
1!
1J
1K
1N
1p
0o
0n
0B
0C
1D
1,
0+
0*
1m
1O
0L
#282000
0!
0J
0K
#283000
1!
1J
1K
1P
0N
1n
1B
1*
0m
1L
#284000
0!
0J
0K
#285000
1!
1J
1K
1N
1o
0n
0B
1C
1U
1+
0*
1m
0S
0Q
0O
0L
1V
#286000
0!
0J
0K
#287000
1!
1J
1K
1W
0T
0R
0P
0N
1n
1B
0U
1*
1Z
1X
0V
0m
1L
0Z
1V
#288000
0!
0J
0K
#289000
1!
1J
1K
1N
0q
0p
0o
0n
1Y
1F
0B
0C
0D
0E
0-
0,
0+
0*
1.
1m
1O
0L
1j
1i
1>
1?
1'
1&
#290000
0!
0J
0K
#291000
1!
1J
1K
1P
0N
1n
1B
1*
0m
1L
#292000
0!
0J
0K
#293000
1!
1J
1K
1N
1o
0n
0B
1C
1+
0*
1m
1Q
0O
0L
#294000
0!
0J
0K
#295000
1!
1J
1K
1R
0P
0N
1n
1B
1*
0m
1L
#296000
0!
0J
0K
#297000
1!
1J
1K
1N
1p
0o
0n
0B
0C
1D
1,
0+
0*
1m
1O
0L
#298000
0!
0J
0K
#299000
1!
1J
1K
1P
0N
1n
1B
1*
0m
1L
#300000
0!
0J
0K
#301000
1!
1J
1K
1N
1o
0n
0B
1C
1+
0*
1m
1S
0Q
0O
0L
#302000
0!
0J
0K
#303000
1!
1J
1K
1T
0R
0P
0N
1n
1B
1*
0m
1L
#304000
0!
0J
0K
#305000
1!
1J
1K
1N
1q
0p
0o
0n
0B
0C
0D
1E
1-
0,
0+
0*
1m
1O
0L
#306000
0!
0J
0K
#307000
1!
1J
1K
1P
0N
1n
1B
1*
0m
1L
#308000
0!
0J
0K
#309000
1!
1J
1K
1N
1o
0n
0B
1C
1+
0*
1m
1Q
0O
0L
#310000
0!
0J
0K
#311000
1!
1J
1K
1R
0P
0N
1n
1B
1*
0m
1L
#312000
0!
0J
0K
#313000
1!
1J
1K
1N
1p
0o
0n
0B
0C
1D
1,
0+
0*
1m
1O
0L
#314000
0!
0J
0K
#315000
1!
1J
1K
1P
0N
1n
1B
1*
0m
1L
#316000
0!
0J
0K
#317000
1!
1J
1K
1N
1o
0n
0B
1C
1U
1+
0*
1m
0S
0Q
0O
0L
1Z
0V
#318000
0!
0J
0K
#319000
1!
1J
1K
1[
0W
0T
0R
0P
0N
1n
1B
0U
1*
1b
0X
1V
0m
1L
0V
#320000
0!
0J
0K
#321000
1!
1J
1K
1N
0q
0p
0o
0n
1c
0Y
0F
1G
0B
0C
0D
0E
0-
0,
0+
0*
1/
0.
1m
1O
0L
1k
0j
0i
1h
1g
1f
1;
1<
1=
0>
0?
1@
1(
0'
0&
1%
1$
1#
#322000
0!
0J
0K
#323000
1!
1J
1K
1P
0N
1n
1B
1*
0m
1L
#324000
0!
0J
0K
#325000
1!
1J
1K
1N
1o
0n
0B
1C
1+
0*
1m
1Q
0O
0L
#326000
0!
0J
0K
#327000
1!
1J
1K
1R
0P
0N
1n
1B
1*
0m
1L
#328000
0!
0J
0K
#329000
1!
1J
1K
1N
1p
0o
0n
0B
0C
1D
1,
0+
0*
1m
1O
0L
#330000
0!
0J
0K
#331000
1!
1J
1K
1P
0N
1n
1B
1*
0m
1L
#332000
0!
0J
0K
#333000
1!
1J
1K
1N
1o
0n
0B
1C
1+
0*
1m
1S
0Q
0O
0L
#334000
0!
0J
0K
#335000
1!
1J
1K
1T
0R
0P
0N
1n
1B
1*
0m
1L
#336000
0!
0J
0K
#337000
1!
1J
1K
1N
1q
0p
0o
0n
0B
0C
0D
1E
1-
0,
0+
0*
1m
1O
0L
#338000
0!
0J
0K
#339000
1!
1J
1K
1P
0N
1n
1B
1*
0m
1L
#340000
0!
0J
0K
#341000
1!
1J
1K
1N
1o
0n
0B
1C
1+
0*
1m
1Q
0O
0L
#342000
0!
0J
0K
#343000
1!
1J
1K
1R
0P
0N
1n
1B
1*
0m
1L
#344000
0!
0J
0K
#345000
1!
1J
1K
1N
1p
0o
0n
0B
0C
1D
1,
0+
0*
1m
1O
0L
#346000
0!
0J
0K
#347000
1!
1J
1K
1P
0N
1n
1B
1*
0m
1L
#348000
0!
0J
0K
#349000
1!
1J
1K
1N
1o
0n
0B
1C
1U
1+
0*
1m
0S
0Q
0O
0L
1V
#350000
0!
0J
0K
#351000
1!
1J
1K
1W
0T
0R
0P
0N
1n
1B
0U
1*
1\
0Z
1X
0V
0m
1L
0\
1Z
1V
#352000
0!
0J
0K
#353000
1!
1J
1K
1N
0q
0p
0o
0n
1Y
1F
0B
0C
0D
0E
0-
0,
0+
0*
1.
1m
1O
0L
1j
0h
0=
1?
1'
0%
#354000
0!
0J
0K
#355000
1!
1J
1K
1P
0N
1n
1B
1*
0m
1L
#356000
0!
0J
0K
#357000
1!
1J
1K
1N
1o
0n
0B
1C
1+
0*
1m
1Q
0O
0L
#358000
0!
0J
0K
#359000
1!
1J
1K
1R
0P
0N
1n
1B
1*
0m
1L
#360000
0!
0J
0K
#361000
1!
1J
1K
1N
1p
0o
0n
0B
0C
1D
1,
0+
0*
1m
1O
0L
#362000
0!
0J
0K
#363000
1!
1J
1K
1P
0N
1n
1B
1*
0m
1L
#364000
0!
0J
0K
#365000
1!
1J
1K
1N
1o
0n
0B
1C
1+
0*
1m
1S
0Q
0O
0L
#366000
0!
0J
0K
#367000
1!
1J
1K
1T
0R
0P
0N
1n
1B
1*
0m
1L
#368000
0!
0J
0K
#369000
1!
1J
1K
1N
1q
0p
0o
0n
0B
0C
0D
1E
1-
0,
0+
0*
1m
1O
0L
#370000
0!
0J
0K
#371000
1!
1J
1K
1P
0N
1n
1B
1*
0m
1L
#372000
0!
0J
0K
#373000
1!
1J
1K
1N
1o
0n
0B
1C
1+
0*
1m
1Q
0O
0L
#374000
0!
0J
0K
#375000
1!
1J
1K
1R
0P
0N
1n
1B
1*
0m
1L
#376000
0!
0J
0K
#377000
1!
1J
1K
1N
1p
0o
0n
0B
0C
1D
1,
0+
0*
1m
1O
0L
#378000
0!
0J
0K
#379000
1!
1J
1K
1P
0N
1n
1B
1*
0m
1L
#380000
0!
0J
0K
#381000
1!
1J
1K
1N
1o
0n
0B
1C
1U
1+
0*
1m
0S
0Q
0O
0L
1\
0Z
0V
#382000
0!
0J
0K
#383000
1!
1J
1K
1]
0[
0W
0T
0R
0P
0N
1n
1B
0U
1*
1d
0b
0X
1V
0m
1L
0V
#384000
0!
0J
0K
#385000
1!
1J
1K
1N
0q
0p
0o
0n
1e
0c
0Y
0F
0G
1H
0B
0C
0D
0E
0-
0,
0+
0*
10
0/
0.
1m
1O
0L
0k
1i
1h
0g
0<
1=
1>
0@
0(
1&
1%
0$
#386000
0!
0J
0K
#387000
1!
1J
1K
1P
0N
1n
1B
1*
0m
1L
#388000
0!
0J
0K
#389000
1!
1J
1K
1N
1o
0n
0B
1C
1+
0*
1m
1Q
0O
0L
#390000
0!
0J
0K
#391000
1!
1J
1K
1R
0P
0N
1n
1B
1*
0m
1L
#392000
0!
0J
0K
#393000
1!
1J
1K
1N
1p
0o
0n
0B
0C
1D
1,
0+
0*
1m
1O
0L
#394000
0!
0J
0K
#395000
1!
1J
1K
1P
0N
1n
1B
1*
0m
1L
#396000
0!
0J
0K
#397000
1!
1J
1K
1N
1o
0n
0B
1C
1+
0*
1m
1S
0Q
0O
0L
#398000
0!
0J
0K
#399000
1!
1J
1K
1T
0R
0P
0N
1n
1B
1*
0m
1L
#400000
0!
0J
0K
#401000
1!
1J
1K
1N
1q
0p
0o
0n
0B
0C
0D
1E
1-
0,
0+
0*
1m
1O
0L
#402000
0!
0J
0K
#403000
1!
1J
1K
1P
0N
1n
1B
1*
0m
1L
#404000
0!
0J
0K
#405000
1!
1J
1K
1N
1o
0n
0B
1C
1+
0*
1m
1Q
0O
0L
#406000
0!
0J
0K
#407000
1!
1J
1K
1R
0P
0N
1n
1B
1*
0m
1L
#408000
0!
0J
0K
#409000
1!
1J
1K
1N
1p
0o
0n
0B
0C
1D
1,
0+
0*
1m
1O
0L
#410000
0!
0J
0K
#411000
1!
1J
1K
1P
0N
1n
1B
1*
0m
1L
#412000
0!
0J
0K
#413000
1!
1J
1K
1N
1o
0n
0B
1C
1U
1+
0*
1m
0S
0Q
0O
0L
1V
#414000
0!
0J
0K
#415000
1!
1J
1K
1W
0T
0R
0P
0N
1n
1B
0U
1*
1Z
1X
0V
0m
1L
0Z
1V
#416000
0!
0J
0K
#417000
1!
1J
1K
1N
0q
0p
0o
0n
1Y
1F
0B
0C
0D
0E
0-
0,
0+
0*
1.
1m
1O
0L
0i
1g
0f
0;
1<
0>
0&
1$
0#
#418000
0!
0J
0K
#419000
1!
1J
1K
1P
0N
1n
1B
1*
0m
1L
