Assignment5/simulation/qsim/exercise1.msim.vcd
$comment
	File created using the following command:
		vcd file exercise1.msim.vcd -direction
$end
$date
	Fri Oct 13 13:08:36 2023
$end
$version
	ModelSim Version 2020.1
$end
$timescale
	1ps
$end

$scope module exercise1_vlg_vec_tst $end
$var reg 1 ! S0 $end
$var reg 1 " S1 $end
$var wire 1 # A $end
$var wire 1 $ B $end
$var wire 1 % C $end

$scope module i1 $end
$var wire 1 & gnd $end
$var wire 1 ' vcc $end
$var wire 1 ( unknown $end
$var tri1 1 ) devclrn $end
$var tri1 1 * devpor $end
$var tri1 1 + devoe $end
$var wire 1 , ~QUARTUS_CREATED_GND~I_combout $end
$var wire 1 - ~QUARTUS_CREATED_UNVM~~busy $end
$var wire 1 . ~QUARTUS_CREATED_ADC1~~eoc $end
$var wire 1 / B~output_o $end
$var wire 1 0 C~output_o $end
$var wire 1 1 A~output_o $end
$var wire 1 2 S0~input_o $end
$var wire 1 3 S1~input_o $end
$var wire 1 4 inst4~combout $end
$var wire 1 5 inst5~combout $end
$var wire 1 6 inst6~combout $end
$upscope $end
$upscope $end
$enddefinitions $end
#0
$dumpvars
0!
0"
x#
x$
x%
0&
1'
x(
1)
1*
1+
0,
z-
z.
x/
x0
x1
02
03
x4
x5
x6
$end
#5000
1!
12
#20000
0!
02
#25000
1"
1!
12
13
14
11
1#
15
1/
1$
16
10
1%
#45000
0!
02
04
01
0#
05
0/
0$
06
00
0%
#50000
0"
1!
12
03
#70000
0!
02
#75000
1"
13
#85000
1!
12
14
11
1#
15
1/
1$
16
10
1%
#100000
0"
03
#105000
0!
02
#110000
1!
12
#125000
1"
13
#135000
0!
02
04
01
0#
05
0/
0$
06
00
0%
#140000
1!
12
14
11
1#
15
1/
1$
16
10
1%
#150000
0"
03
#155000
0!
02
#165000
1!
12
#170000
0!
02
#175000
1"
13
04
01
0#
05
0/
0$
06
00
0%
#190000
1!
12
14
11
1#
15
1/
1$
16
10
1%
#195000
0!
02
04
01
0#
05
0/
0$
06
00
0%
#200000
0"
03
#205000
1!
12
#220000
0!
02
#225000
1"
13
#230000
1!
12
14
11
1#
15
1/
1$
16
10
1%
#235000
0!
02
04
01
0#
05
0/
0$
06
00
0%
#240000
1!
12
14
11
1#
15
1/
1$
16
10
1%
#250000
0"
0!
02
03
#255000
1!
12
#265000
0!
02
#270000
1!
12
#275000
1"
13
#290000
0!
02
04
01
0#
05
0/
0$
06
00
0%
#295000
1!
12
14
11
1#
15
1/
1$
16
10
1%
#300000
0"
0!
02
03
#315000
1!
12
#325000
1"
0!
02
13
04
01
0#
05
0/
0$
06
00
0%
#335000
1!
12
14
11
1#
15
1/
1$
16
10
1%
#345000
0!
02
04
01
0#
05
0/
0$
06
00
0%
#350000
0"
03
#355000
1!
12
#370000
0!
02
#375000
1"
13
#380000
1!
12
14
11
1#
15
1/
1$
16
10
1%
#385000
0!
02
04
01
0#
05
0/
0$
06
00
0%
#395000
1!
12
14
11
1#
15
1/
1$
16
10
1%
#400000
0"
03
#405000
0!
02
#420000
1!
12
#425000
1"
0!
02
13
04
01
0#
05
0/
0$
06
00
0%
#430000
1!
12
14
11
1#
15
1/
1$
16
10
1%
#435000
0!
02
04
01
0#
05
0/
0$
06
00
0%
#440000
1!
12
14
11
1#
15
1/
1$
16
10
1%
#450000
0"
0!
02
03
#455000
1!
12
#475000
1"
13
#485000
0!
02
04
01
0#
05
0/
0$
06
00
0%
#495000
1!
12
14
11
1#
15
1/
1$
16
10
1%
#500000
0"
03
#505000
0!
02
#515000
1!
12
#520000
0!
02
#525000
1"
13
04
01
0#
05
0/
0$
06
00
0%
#530000
1!
12
14
11
1#
15
1/
1$
16
10
1%
#545000
0!
02
04
01
0#
05
0/
0$
06
00
0%
#550000
0"
1!
12
03
#555000
0!
02
#560000
1!
12
#565000
0!
02
#570000
1!
12
#575000
1"
0!
02
13
#580000
1!
12
14
11
1#
15
1/
1$
16
10
1%
#590000
0!
02
04
01
0#
05
0/
0$
06
00
0%
#595000
1!
12
14
11
1#
15
1/
1$
16
10
1%
#600000
0"
03
#615000
0!
02
#625000
1"
1!
12
13
#635000
0!
02
04
01
0#
05
0/
0$
06
00
0%
#640000
1!
12
14
11
1#
15
1/
1$
16
10
1%
#650000
0"
03
#660000
0!
02
#675000
1"
1!
12
13
#680000
0!
02
04
01
0#
05
0/
0$
06
00
0%
#685000
1!
12
14
11
1#
15
1/
1$
16
10
1%
#695000
0!
02
04
01
0#
05
0/
0$
06
00
0%
#700000
0"
03
#710000
1!
12
#715000
0!
02
#725000
1"
1!
12
13
14
11
1#
15
1/
1$
16
10
1%
#730000
0!
02
04
01
0#
05
0/
0$
06
00
0%
#735000
1!
12
14
11
1#
15
1/
1$
16
10
1%
#750000
0"
03
#770000
0!
02
#775000
1"
13
04
01
0#
05
0/
0$
06
00
0%
#780000
1!
12
14
11
1#
15
1/
1$
16
10
1%
#785000
0!
02
04
01
0#
05
0/
0$
06
00
0%
#790000
1!
12
14
11
1#
15
1/
1$
16
10
1%
#800000
0"
0!
02
03
#810000
1!
12
#820000
0!
02
#825000
1"
13
04
01
0#
05
0/
0$
06
00
0%
#835000
1!
12
14
11
1#
15
1/
1$
16
10
1%
#850000
0"
03
#860000
0!
02
#870000
1!
12
#875000
1"
13
#880000
0!
02
04
01
0#
05
0/
0$
06
00
0%
#895000
1!
12
14
11
1#
15
1/
1$
16
10
1%
#900000
0"
03
#905000
0!
02
#910000
1!
12
#920000
0!
02
#925000
1"
1!
12
13
#940000
0!
02
04
01
0#
05
0/
0$
06
00
0%
#945000
1!
12
14
11
1#
15
1/
1$
16
10
1%
#950000
0"
03
#960000
0!
02
#965000
1!
12
#975000
1"
13
#995000
0!
02
04
01
0#
05
0/
0$
06
00
0%
