Old/Week2/Exercise2/simulation/qsim/exercise2.msim.vcd
$comment
	File created using the following command:
		vcd file exercise2.msim.vcd -direction
$end
$date
	Thu Sep 14 14:18:07 2023
$end
$version
	ModelSim Version 2020.1
$end
$timescale
	1ps
$end

$scope module exercise1_vlg_vec_tst $end
$var reg 1 ! S0 $end
$var reg 1 " S1 $end
$var wire 1 # L0 $end

$scope module i1 $end
$var wire 1 $ gnd $end
$var wire 1 % vcc $end
$var wire 1 & unknown $end
$var tri1 1 ' devclrn $end
$var tri1 1 ( devpor $end
$var tri1 1 ) devoe $end
$var wire 1 * ~QUARTUS_CREATED_GND~I_combout $end
$var wire 1 + ~QUARTUS_CREATED_UNVM~~busy $end
$var wire 1 , ~QUARTUS_CREATED_ADC1~~eoc $end
$var wire 1 - L0~output_o $end
$var wire 1 . S1~input_o $end
$var wire 1 / S0~input_o $end
$var wire 1 0 inst~combout $end
$upscope $end
$upscope $end
$enddefinitions $end
#0
$dumpvars
1!
1"
1#
0$
1%
x&
1'
1(
1)
0*
z+
z,
1-
1.
1/
10
$end
#5000
0!
0/
#10000
0"
1!
1/
0.
#15000
0!
0/
00
0-
0#
#20000
1!
1/
10
1-
1#
#30000
1"
1.
#45000
0!
0/
#50000
0"
0.
00
0-
0#
#60000
1!
1"
1.
1/
10
1-
1#
#70000
0"
0.
#75000
0!
0/
00
0-
0#
#80000
1"
1.
10
1-
1#
#85000
1!
1/
#100000
0"
0!
0/
0.
00
0-
0#
#115000
1!
1/
10
1-
1#
#120000
1"
1.
#130000
0"
0.
#145000
0!
0/
00
0-
0#
#150000
1!
1/
10
1-
1#
#155000
0!
0/
00
0-
0#
#160000
1"
1.
10
1-
1#
#175000
1!
1/
#180000
0!
0/
#190000
0"
1!
1/
0.
#200000
1"
0!
0/
1.
#215000
1!
1/
#225000
0!
0/
#240000
0"
1!
1/
0.
#250000
1"
1.
#255000
0!
0/
#265000
1!
1/
#270000
0"
0!
0/
0.
00
0-
0#
#275000
1!
1/
10
1-
1#
#280000
1"
1.
#290000
0!
0/
#295000
1!
1/
#300000
0"
0!
0/
0.
00
0-
0#
#305000
1!
1/
10
1-
1#
#310000
0!
0/
00
0-
0#
#315000
1!
1/
10
1-
1#
#320000
1"
0!
0/
1.
#330000
0"
1!
1/
0.
#340000
1"
0!
0/
1.
#345000
1!
1/
#350000
0"
0.
#355000
0!
0/
00
0-
0#
#360000
1!
1/
10
1-
1#
#365000
0!
0/
00
0-
0#
#375000
1!
1/
10
1-
1#
#385000
0!
0/
00
0-
0#
#390000
1"
1.
10
1-
1#
#395000
1!
1/
#400000
0"
0!
0/
0.
00
0-
0#
#405000
1!
1/
10
1-
1#
#415000
0!
0/
00
0-
0#
#420000
1"
1.
10
1-
1#
#425000
1!
1/
#430000
0"
0.
#445000
0!
0/
00
0-
0#
#450000
1"
1.
10
1-
1#
#460000
1!
0"
0.
1/
#470000
0!
0/
00
0-
0#
#480000
1!
1/
10
1-
1#
#490000
0!
0/
00
0-
0#
#500000
1"
1.
10
1-
1#
#505000
1!
1/
#510000
0!
0/
#525000
1!
1/
#530000
0!
0/
#535000
1!
1/
#550000
0!
0/
#555000
1!
1/
#560000
0"
0.
#565000
0!
0/
00
0-
0#
#575000
1!
1/
10
1-
1#
#590000
1"
1.
#600000
0!
0/
#605000
1!
1/
#610000
0"
0.
#620000
0!
1"
1.
0/
#625000
1!
1/
#630000
0"
0.
#645000
0!
0/
00
0-
0#
#650000
1!
1/
10
1-
1#
#655000
0!
0/
00
0-
0#
#670000
1"
1!
1/
1.
10
1-
1#
#710000
0"
0.
#715000
0!
0/
00
0-
0#
#730000
1"
1.
10
1-
1#
#735000
1!
1/
#745000
0!
0/
#750000
0"
1!
1/
0.
#770000
1"
1.
#775000
0!
0/
#780000
0"
1!
1/
0.
#795000
0!
0/
00
0-
0#
#800000
1"
1.
10
1-
1#
#805000
1!
1/
#810000
0!
0/
#815000
1!
1/
#820000
0!
0/
#825000
1!
1/
#860000
0!
0/
#885000
1!
1/
#890000
0!
0/
#900000
0"
0.
00
0-
0#
#905000
1!
1/
10
1-
1#
#910000
0!
0/
00
0-
0#
#915000
1!
1/
10
1-
1#
#920000
1"
0!
0/
1.
#930000
1!
1/
#935000
0!
0/
#940000
1!
1/
#950000
0"
0!
0/
0.
00
0-
0#
#960000
1!
1/
10
1-
1#
#980000
0!
0/
00
0-
0#
#990000
1"
1!
1/
1.
10
1-
1#
#995000
0!
0/
