Old/Week2/Exercise3/simulation/qsim/exercise2.msim.vcd
$comment
	File created using the following command:
		vcd file exercise2.msim.vcd -direction
$end
$date
	Thu Sep 14 13:21:07 2023
$end
$version
	ModelSim Version 2020.1
$end
$timescale
	1ps
$end

$scope module exercise1_vlg_vec_tst $end
$var reg 1 ! S0 $end
$var reg 1 " S1 $end
$var wire 1 # L0 $end

$scope module i1 $end
$var wire 1 $ gnd $end
$var wire 1 % vcc $end
$var wire 1 & unknown $end
$var tri1 1 ' devclrn $end
$var tri1 1 ( devpor $end
$var tri1 1 ) devoe $end
$var wire 1 * ~QUARTUS_CREATED_GND~I_combout $end
$var wire 1 + ~QUARTUS_CREATED_UNVM~~busy $end
$var wire 1 , ~QUARTUS_CREATED_ADC1~~eoc $end
$var wire 1 - L0~output_o $end
$var wire 1 . S1~input_o $end
$var wire 1 / S0~input_o $end
$var wire 1 0 inst~combout $end
$upscope $end
$upscope $end
$enddefinitions $end
#0
$dumpvars
1!
0"
1#
0$
1%
x&
1'
1(
1)
0*
z+
z,
1-
0.
1/
10
$end
#5000
0!
0/
00
0-
0#
#10000
1!
1/
10
1-
1#
#15000
0!
0/
00
0-
0#
#20000
1"
1!
1/
1.
10
1-
1#
#30000
0"
0.
#40000
1"
1.
#45000
0!
0/
#50000
0"
0.
00
0-
0#
#60000
1!
1"
1.
1/
10
1-
1#
#75000
0!
0/
#80000
0"
0.
00
0-
0#
#85000
1!
1/
10
1-
1#
#100000
0!
0/
00
0-
0#
#110000
1"
1.
10
1-
1#
#115000
1!
1/
#140000
0"
0.
#145000
0!
0/
00
0-
0#
#150000
1!
1/
10
1-
1#
#155000
0!
0/
00
0-
0#
#160000
1"
1.
10
1-
1#
#170000
0"
0.
00
0-
0#
#175000
1!
1/
10
1-
1#
#180000
1"
0!
0/
1.
#190000
0"
1!
1/
0.
#200000
1"
0!
0/
1.
#210000
0"
0.
00
0-
0#
#215000
1!
1/
10
1-
1#
#225000
0!
0/
00
0-
0#
#230000
1"
1.
10
1-
1#
#240000
1!
1/
#250000
0"
0.
#255000
0!
0/
00
0-
0#
#260000
1"
1.
10
1-
1#
#265000
1!
1/
#270000
0"
0!
0/
0.
00
0-
0#
#275000
1!
1/
10
1-
1#
#280000
1"
1.
#290000
0!
0"
0.
0/
00
0-
0#
#295000
1!
1/
10
1-
1#
#300000
0!
0/
00
0-
0#
#305000
1!
1/
10
1-
1#
#310000
0!
0/
00
0-
0#
#315000
1!
1/
10
1-
1#
#320000
1"
0!
0/
1.
#330000
0"
1!
1/
0.
#340000
0!
0/
00
0-
0#
#345000
1!
1/
10
1-
1#
#350000
1"
1.
#355000
0!
0/
#360000
0"
1!
1/
0.
#365000
0!
0/
00
0-
0#
#375000
1!
1/
10
1-
1#
#385000
0!
0/
00
0-
0#
#395000
1!
1/
10
1-
1#
#400000
1"
0!
0/
1.
#405000
1!
1/
#415000
0!
0/
#425000
1!
1/
#430000
0"
0.
#440000
1"
1.
#445000
0!
0/
#450000
0"
0.
00
0-
0#
#460000
1!
1"
1.
1/
10
1-
1#
#470000
0!
0"
0.
0/
00
0-
0#
#480000
1!
1"
1.
1/
10
1-
1#
#490000
0!
0/
#505000
1!
1/
#510000
0!
0/
#525000
1!
1/
#530000
0"
0!
0/
0.
00
0-
0#
#535000
1!
1/
10
1-
1#
#540000
1"
1.
#550000
0!
0"
0.
0/
00
0-
0#
#555000
1!
1/
10
1-
1#
#565000
0!
0/
00
0-
0#
#575000
1!
1/
10
1-
1#
#590000
1"
1.
#600000
0!
0/
#605000
1!
1/
#610000
0"
0.
#620000
0!
1"
1.
0/
#625000
1!
1/
#645000
0!
0/
#650000
1!
1/
#655000
0!
0/
#660000
0"
0.
00
0-
0#
#670000
1!
1/
10
1-
1#
#700000
1"
1.
#715000
0!
0/
#730000
0"
0.
00
0-
0#
#735000
1!
1/
10
1-
1#
#745000
0!
0/
00
0-
0#
#750000
1!
1/
10
1-
1#
#775000
0!
0/
00
0-
0#
#780000
1!
1/
10
1-
1#
#795000
0!
0/
00
0-
0#
#800000
1"
1.
10
1-
1#
#805000
1!
1/
#810000
0"
0!
0/
0.
00
0-
0#
#815000
1!
1/
10
1-
1#
#820000
1"
0!
0/
1.
#825000
1!
1/
#830000
0"
0.
#860000
0!
0/
00
0-
0#
#870000
1"
1.
10
1-
1#
#880000
0"
0.
00
0-
0#
#885000
1!
1/
10
1-
1#
#890000
1"
0!
0/
1.
#900000
0"
0.
00
0-
0#
#905000
1!
1/
10
1-
1#
#910000
1"
0!
0/
1.
#915000
1!
1/
#920000
0"
0!
0/
0.
00
0-
0#
#930000
1!
1/
10
1-
1#
#935000
0!
0/
00
0-
0#
#940000
1"
1!
1/
1.
10
1-
1#
#950000
0"
0!
0/
0.
00
0-
0#
#960000
1"
1!
1/
1.
10
1-
1#
#980000
0"
0!
0/
0.
00
0-
0#
#990000
1!
1/
10
1-
1#
#995000
0!
0/
00
0-
0#
