Old/Week2/Exercise3/simulation/qsim/exercise3.msim.vcd
$comment
	File created using the following command:
		vcd file exercise3.msim.vcd -direction
$end
$date
	Thu Sep 14 14:19:35 2023
$end
$version
	ModelSim Version 2020.1
$end
$timescale
	1ps
$end

$scope module exercise1_vlg_vec_tst $end
$var reg 1 ! S0 $end
$var reg 1 " S1 $end
$var wire 1 # L0 $end

$scope module i1 $end
$var wire 1 $ gnd $end
$var wire 1 % vcc $end
$var wire 1 & unknown $end
$var tri1 1 ' devclrn $end
$var tri1 1 ( devpor $end
$var tri1 1 ) devoe $end
$var wire 1 * ~QUARTUS_CREATED_GND~I_combout $end
$var wire 1 + ~QUARTUS_CREATED_UNVM~~busy $end
$var wire 1 , ~QUARTUS_CREATED_ADC1~~eoc $end
$var wire 1 - L0~output_o $end
$var wire 1 . S1~input_o $end
$var wire 1 / S0~input_o $end
$var wire 1 0 inst4~0_combout $end
$upscope $end
$upscope $end
$enddefinitions $end
#0
$dumpvars
0!
0"
0#
0$
1%
x&
1'
1(
1)
0*
z+
z,
0-
0.
0/
00
$end
#10000
1!
1/
10
1-
1#
#30000
1"
0!
0/
1.
#40000
1!
1/
00
0-
0#
#60000
0!
0/
10
1-
1#
#70000
1!
1/
00
0-
0#
#90000
0"
0!
0/
0.
#100000
1"
1!
1/
1.
#110000
0!
0/
10
1-
1#
#120000
1!
1/
00
0-
0#
#130000
0!
0/
10
1-
1#
#140000
0"
1!
1/
0.
#150000
1"
1.
00
0-
0#
#160000
0!
0/
10
1-
1#
#170000
1!
1/
00
0-
0#
#190000
0!
0/
10
1-
1#
#210000
1!
1/
00
0-
0#
#220000
0"
0!
0/
0.
#240000
1!
1/
10
1-
1#
#250000
1"
1.
00
0-
0#
#260000
0!
0/
10
1-
1#
#270000
0"
1!
1/
0.
#290000
0!
0/
00
0-
0#
#300000
1!
1/
10
1-
1#
#310000
1"
0!
0/
1.
#320000
0"
0.
00
0-
0#
#330000
1!
1/
10
1-
1#
#360000
1"
0!
0/
1.
#370000
1!
1/
00
0-
0#
#380000
0"
0!
0/
0.
#410000
1"
1.
10
1-
1#
#420000
0"
0.
00
0-
0#
#430000
1!
1/
10
1-
1#
#440000
1"
0!
0/
1.
#450000
1!
1/
00
0-
0#
#460000
0!
0/
10
1-
1#
#470000
0"
1!
1/
0.
#480000
1"
1.
00
0-
0#
#490000
0!
0/
10
1-
1#
#500000
0"
0.
00
0-
0#
#520000
1"
1.
10
1-
1#
#530000
0"
0.
00
0-
0#
#550000
1"
1.
10
1-
1#
#560000
1!
0"
0.
1/
#580000
0!
0/
00
0-
0#
#590000
1!
1/
10
1-
1#
#610000
0!
0/
00
0-
0#
#630000
1"
1.
10
1-
1#
#660000
1!
1/
00
0-
0#
#670000
0"
0.
10
1-
1#
#690000
0!
0/
00
0-
0#
#700000
1!
1/
10
1-
1#
#710000
1"
1.
00
0-
0#
#740000
0!
0/
10
1-
1#
#760000
0"
0.
00
0-
0#
#780000
1!
1/
10
1-
1#
#790000
1"
1.
00
0-
0#
#810000
0"
0.
10
1-
1#
#840000
0!
1"
1.
0/
#850000
0"
0.
00
0-
0#
#860000
1!
1"
1.
1/
#870000
0!
0/
10
1-
1#
#880000
1!
1/
00
0-
0#
#890000
0"
0.
10
1-
1#
#900000
0!
0/
00
0-
0#
#910000
1!
1/
10
1-
1#
#920000
1"
1.
00
0-
0#
#930000
0!
0/
10
1-
1#
#940000
0"
0.
00
0-
0#
#960000
1!
1"
1.
1/
#970000
0"
0.
10
1-
1#
