Assignment52/simulation/qsim/exercise1.msim.vcd
$comment
	File created using the following command:
		vcd file exercise1.msim.vcd -direction
$end
$date
	Fri Oct 13 12:16:29 2023
$end
$version
	ModelSim Version 2020.1
$end
$timescale
	1ps
$end

$scope module exercise1_vlg_vec_tst $end
$var reg 1 ! S0 $end
$var reg 1 " S1 $end
$var wire 1 # A $end
$var wire 1 $ B $end
$var wire 1 % C $end

$scope module i1 $end
$var wire 1 & gnd $end
$var wire 1 ' vcc $end
$var wire 1 ( unknown $end
$var tri1 1 ) devclrn $end
$var tri1 1 * devpor $end
$var tri1 1 + devoe $end
$var wire 1 , ~QUARTUS_CREATED_GND~I_combout $end
$var wire 1 - ~QUARTUS_CREATED_UNVM~~busy $end
$var wire 1 . ~QUARTUS_CREATED_ADC1~~eoc $end
$var wire 1 / B~output_o $end
$var wire 1 0 C~output_o $end
$var wire 1 1 A~output_o $end
$var wire 1 2 S1~input_o $end
$var wire 1 3 S0~input_o $end
$var wire 1 4 inst1~feeder_combout $end
$var wire 1 5 inst1~q $end
$var wire 1 6 inst4~feeder_combout $end
$var wire 1 7 inst4~q $end
$var wire 1 8 inst5~feeder_combout $end
$var wire 1 9 inst5~q $end
$upscope $end
$upscope $end
$enddefinitions $end
#0
$dumpvars
1!
0"
0#
0$
0%
0&
1'
x(
1)
1*
1+
0,
z-
z.
0/
00
01
02
13
14
05
06
07
08
09
$end
#20000
0!
03
04
#30000
1!
13
14
#40000
0!
03
04
#50000
1"
12
#70000
1!
13
14
#80000
0!
03
04
#90000
1!
13
14
#100000
0"
02
#110000
0!
03
04
#120000
1!
13
14
#130000
0!
03
04
#140000
1!
13
14
#150000
1"
12
15
11
1#
16
#170000
0!
03
04
#200000
0"
1!
13
02
14
#250000
1"
12
17
1/
1$
18
#260000
0!
03
04
#270000
1!
13
14
#300000
0"
02
#310000
0!
03
04
#320000
1!
13
14
#350000
1"
0!
03
12
04
19
10
1%
#360000
1!
13
14
#380000
0!
03
04
#400000
0"
1!
13
02
14
#410000
0!
03
04
#440000
1!
13
14
#450000
1"
0!
03
12
04
#460000
1!
13
14
#470000
0!
03
04
#500000
0"
02
#530000
1!
13
14
#550000
1"
0!
03
12
04
#600000
0"
02
#610000
1!
13
14
#630000
0!
03
04
#650000
1"
1!
13
12
14
05
01
0#
06
#660000
0!
03
04
#700000
0"
02
#710000
1!
13
14
#720000
0!
03
04
#750000
1"
12
07
0/
0$
08
#770000
1!
13
14
#780000
0!
03
04
#790000
1!
13
14
#800000
0"
0!
03
02
04
#830000
1!
13
14
#850000
1"
0!
03
12
04
09
15
11
00
0%
1#
16
#860000
1!
13
14
#890000
0!
03
04
#900000
0"
1!
13
02
14
#910000
0!
03
04
#920000
1!
13
14
#930000
0!
03
04
#950000
1"
1!
13
12
14
17
05
01
1/
1$
0#
18
06
#960000
0!
03
04
#970000
1!
13
14
#980000
0!
03
04
