Assignment4/excercise1/simulation/qsim/exercise1.msim.vcd
$comment
	File created using the following command:
		vcd file exercise1.msim.vcd -direction
$end
$date
	Tue Oct 10 16:10:36 2023
$end
$version
	ModelSim Version 2020.1
$end
$timescale
	1ps
$end

$scope module exercise2_vlg_vec_tst $end
$var reg 1 ! S0 $end
$var reg 1 " S1 $end
$var reg 1 # S2 $end
$var reg 1 $ S3 $end
$var reg 1 % S4 $end
$var reg 1 & S5 $end
$var wire 1 ' A $end
$var wire 1 ( B $end
$var wire 1 ) C $end
$var wire 1 * D $end
$var wire 1 + E $end
$var wire 1 , F $end
$var wire 1 - G $end
$var wire 1 . L0 $end
$var wire 1 / L1 $end
$var wire 1 0 L2 $end
$var wire 1 1 L3 $end

$scope module i1 $end
$var wire 1 2 gnd $end
$var wire 1 3 vcc $end
$var wire 1 4 unknown $end
$var tri1 1 5 devclrn $end
$var tri1 1 6 devpor $end
$var tri1 1 7 devoe $end
$var wire 1 8 ~QUARTUS_CREATED_GND~I_combout $end
$var wire 1 9 ~QUARTUS_CREATED_UNVM~~busy $end
$var wire 1 : ~QUARTUS_CREATED_ADC1~~eoc $end
$var wire 1 ; A~output_o $end
$var wire 1 < B~output_o $end
$var wire 1 = C~output_o $end
$var wire 1 > D~output_o $end
$var wire 1 ? E~output_o $end
$var wire 1 @ F~output_o $end
$var wire 1 A G~output_o $end
$var wire 1 B L0~output_o $end
$var wire 1 C L1~output_o $end
$var wire 1 D L2~output_o $end
$var wire 1 E L3~output_o $end
$var wire 1 F S2~input_o $end
$var wire 1 G S4~input_o $end
$var wire 1 H S3~input_o $end
$var wire 1 I S1~input_o $end
$var wire 1 J S0~input_o $end
$var wire 1 K inst3|inst11~0_combout $end
$var wire 1 L S5~input_o $end
$var wire 1 M inst1|inst11~0_combout $end
$var wire 1 N inst|inst10~0_combout $end
$var wire 1 O inst3|inst10~0_combout $end
$var wire 1 P inst1|inst10~0_combout $end
$var wire 1 Q inst2|81~0_combout $end
$var wire 1 R inst2|82~0_combout $end
$var wire 1 S inst2|83~combout $end
$var wire 1 T inst2|84~2_combout $end
$var wire 1 U inst2|85~combout $end
$var wire 1 V inst2|86~0_combout $end
$var wire 1 W inst2|87~combout $end
$upscope $end
$upscope $end
$enddefinitions $end
#0
$dumpvars
0!
0"
0#
0$
0%
0&
0'
0(
0)
0*
0+
0,
1-
0.
0/
00
01
02
13
x4
15
16
17
08
z9
z:
0;
0<
0=
0>
0?
0@
1A
0B
0C
0D
0E
0F
0G
0H
0I
0J
0K
0L
0M
0N
0O
0P
0Q
0R
0S
0T
0U
0V
1W
$end
#5000
1!
1J
1U
1T
1N
1B
1>
1?
1+
1*
1.
1V
1Q
1;
1@
1,
1'
#10000
1$
0!
0J
1H
#15000
1#
1!
1J
1F
0U
0T
1O
0N
1P
1D
0B
1C
0>
0?
0+
0*
1/
0.
10
0W
0V
1R
1<
0@
0A
0-
0,
1(
#20000
1"
0$
0!
0J
0H
1I
#25000
1!
1J
1U
1T
1N
1B
1>
1?
1+
1*
1.
1W
1V
0R
0Q
0;
0<
1@
1A
1-
1,
0(
0'
#30000
0#
1$
0!
0J
1H
0F
0P
0D
00
0W
0T
0>
0A
0-
0*
#35000
1!
1J
1K
0U
0O
0N
0B
0C
0?
0+
0/
0.
1P
1W
0V
0@
1A
1D
10
1-
0,
0W
1U
1T
1Q
1;
1>
1?
0A
0-
1+
1*
1'
#40000
1%
0"
0$
0!
0J
0H
0I
1G
0K
1O
1C
1/
0P
0U
0T
1R
1<
0>
0?
0D
00
0+
0*
1(
1V
1S
0R
0Q
0;
0<
1=
1@
1,
1)
0(
0'
#45000
1#
1!
1J
1F
1U
1N
1P
1D
1B
1?
1+
1.
10
1W
0S
1T
1>
0=
1A
1-
0)
1*
#50000
1$
0!
0J
1H
#55000
1!
1J
1K
0U
0T
0O
0N
0B
0C
0>
0?
0+
0*
0/
0.
0P
1M
0W
0V
1U
1T
1Q
1;
1>
1?
0@
0A
1E
0D
00
11
0-
0,
1+
1*
1'
0U
0T
0Q
0;
0>
0?
0+
0*
0'
#60000
1&
1"
0#
0$
0!
0J
0H
0F
1I
1L
#65000
1!
1J
1U
1T
1N
1B
1>
1?
1+
1*
1.
#70000
1$
0!
0J
1H
#75000
1#
1!
1J
1F
0U
0T
1O
0N
1P
1D
0B
1C
0>
0?
0+
0*
1/
0.
10
1S
1R
1Q
1;
1<
1=
1)
1(
1'
#80000
0%
0"
0$
0!
0J
0H
0I
0G
0K
0O
0C
0/
0P
1U
1T
0R
0<
1>
1?
0D
00
1+
1*
0(
0U
0T
0S
0Q
0;
0=
0>
0?
0+
0*
0)
0'
#85000
1!
1J
1U
1T
1N
1B
1>
1?
1+
1*
1.
#90000
0#
1$
0!
0J
1H
0F
1P
0M
0E
1D
10
01
0T
1R
1<
0>
0*
1(
#95000
1!
1J
1T
1O
0N
0B
1C
1>
1*
1/
0.
0U
0T
1Q
1;
0>
0?
0+
0*
1'
#100000
1"
0$
0!
0J
0H
1I
#105000
1#
1!
1J
1F
1U
1T
1N
0P
1M
1E
0D
1B
1>
1?
1+
1*
1.
00
11
1V
0T
0>
1@
1,
0*
#110000
1$
0!
0J
1H
#115000
1!
1J
1K
0U
0O
0N
0B
0C
0?
0+
0/
0.
1P
0V
0R
0Q
0;
0<
0@
1D
10
0,
0(
0'
1U
1T
1S
1Q
1;
1=
1>
1?
1+
1*
1)
1'
#120000
0&
1%
0"
0#
0$
0!
0J
0H
0F
0I
1G
0L
0K
1O
0M
0E
1C
1/
01
0P
0U
0T
0S
1R
1<
0=
0>
0?
0D
00
0+
0*
0)
1(
1V
1S
0R
0Q
0;
0<
1=
1@
1,
1)
0(
0'
#125000
1!
1J
1U
1N
1B
1?
1+
1.
0S
0=
0)
#130000
1$
0!
0J
1H
#135000
1#
1!
1J
1F
1K
0U
0O
0N
1P
1D
0B
0C
0?
0+
0/
0.
10
0P
1M
0V
1U
1T
1Q
1;
1>
1?
0@
1E
0D
00
11
0,
1+
1*
1'
0U
0T
0Q
0;
0>
0?
0+
0*
0'
#140000
1"
0$
0!
0J
0H
1I
#145000
1!
1J
1U
1T
1N
1B
1>
1?
1+
1*
1.
#150000
0#
1$
0!
0J
1H
0F
1P
0M
0E
1D
10
01
0T
1R
1<
0>
0*
1(
#155000
1!
1J
1T
1O
0N
0B
1C
1>
1*
1/
0.
0U
0T
1Q
1;
0>
0?
0+
0*
1'
#160000
0%
0"
0$
0!
0J
0H
0I
0G
0K
0O
0C
0/
0P
1U
1T
0R
0<
1>
1?
0D
00
1+
1*
0(
1W
0U
0T
0Q
0;
0>
0?
1A
1-
0+
0*
0'
#165000
1#
1!
1J
1F
1U
1T
1N
1P
1D
1B
1>
1?
1+
1*
1.
10
0W
1R
0T
0>
1<
0A
0-
1(
0*
#170000
1$
0!
0J
1H
#175000
1!
1J
1T
1O
0N
0B
1C
1>
1*
1/
0.
0U
0T
1Q
1;
0>
0?
0+
0*
1'
#180000
1&
1"
0#
0$
0!
0J
0H
0F
1I
1L
#185000
1!
1J
1U
1T
1N
1B
1>
1?
1+
1*
1.
1W
1V
0R
0Q
0;
0<
1@
1A
1-
1,
0(
0'
#190000
1$
0!
0J
1H
#195000
1#
1!
1J
1F
1K
0U
0T
0O
0N
0P
1M
1E
0D
0B
0C
0>
0?
0+
0*
0/
0.
00
11
1P
0W
0V
0@
0A
1D
10
0-
0,
1U
1T
1S
1Q
1;
1=
1>
1?
1+
1*
1)
1'
#200000
1%
0"
0$
0!
0J
0H
0I
1G
0K
1O
1C
1/
0P
0U
0T
1R
1<
0>
0?
0D
00
0+
0*
1(
1V
1@
1,
#205000
1!
1J
1U
1N
1B
1?
1+
1.
0S
0=
0)
#210000
0#
1$
0!
0J
1H
0F
1P
0M
0E
1D
10
01
1W
1T
0R
0Q
0;
0<
1>
1A
1-
1*
0(
0'
#215000
1!
1J
1K
0U
0T
0O
0N
0B
0C
0>
0?
0+
0*
0/
0.
0P
1M
0W
0V
1U
1T
1Q
1;
1>
1?
0@
0A
1E
0D
00
11
0-
0,
1+
1*
1'
0U
0T
0Q
0;
0>
0?
0+
0*
0'
#220000
1"
0$
0!
0J
0H
1I
#225000
1#
1!
1J
1F
1U
1T
1N
1P
1D
1B
1>
1?
1+
1*
1.
10
1S
1R
0T
0>
1<
1=
1)
1(
0*
#230000
1$
0!
0J
1H
#235000
1!
1J
1T
1O
0N
0B
1C
1>
1*
1/
0.
0U
0T
1Q
1;
0>
0?
0+
0*
1'
#240000
0&
0%
0"
0#
0$
0!
0J
0H
0F
0I
0G
0L
0K
0O
0M
0E
0C
0/
01
0P
1U
1T
0S
0R
0<
0=
1>
1?
0D
00
1+
1*
0)
0(
1W
0U
0T
0Q
0;
0>
0?
1A
1-
0+
0*
0'
#245000
1!
1J
1U
1T
1N
1B
1>
1?
1+
1*
1.
1V
1Q
1;
1@
1,
1'
#250000
1$
0!
0J
1H
#255000
1#
1!
1J
1F
0U
0T
1O
0N
1P
1D
0B
1C
0>
0?
0+
0*
1/
0.
10
0W
0V
1R
1<
0@
0A
0-
0,
1(
#260000
1"
0$
0!
0J
0H
1I
#265000
1!
1J
1U
1T
1N
1B
1>
1?
1+
1*
1.
1W
1V
0R
0Q
0;
0<
1@
1A
1-
1,
0(
0'
#270000
0#
1$
0!
0J
1H
0F
0P
0D
00
0W
0T
0>
0A
0-
0*
#275000
1!
1J
1K
0U
0O
0N
0B
0C
0?
0+
0/
0.
1P
1W
0V
0@
1A
1D
10
1-
0,
0W
1U
1T
1Q
1;
1>
1?
0A
0-
1+
1*
1'
#280000
1%
0"
0$
0!
0J
0H
0I
1G
0K
1O
1C
1/
0P
0U
0T
1R
1<
0>
0?
0D
00
0+
0*
1(
1V
1S
0R
0Q
0;
0<
1=
1@
1,
1)
0(
0'
#285000
1#
1!
1J
1F
1U
1N
1P
1D
1B
1?
1+
1.
10
1W
0S
1T
1>
0=
1A
1-
0)
1*
#290000
1$
0!
0J
1H
#295000
1!
1J
1K
0U
0T
0O
0N
0B
0C
0>
0?
0+
0*
0/
0.
0P
1M
0W
0V
1U
1T
1Q
1;
1>
1?
0@
0A
1E
0D
00
11
0-
0,
1+
1*
1'
0U
0T
0Q
0;
0>
0?
0+
0*
0'
#300000
1&
1"
0#
0$
0!
0J
0H
0F
1I
1L
#305000
1!
1J
1U
1T
1N
1B
1>
1?
1+
1*
1.
#310000
1$
0!
0J
1H
#315000
1#
1!
1J
1F
0U
0T
1O
0N
1P
1D
0B
1C
0>
0?
0+
0*
1/
0.
10
1S
1R
1Q
1;
1<
1=
1)
1(
1'
#320000
0%
0"
0$
0!
0J
0H
0I
0G
0K
0O
0C
0/
0P
1U
1T
0R
0<
1>
1?
0D
00
1+
1*
0(
0U
0T
0S
0Q
0;
0=
0>
0?
0+
0*
0)
0'
#325000
1!
1J
1U
1T
1N
1B
1>
1?
1+
1*
1.
#330000
0#
1$
0!
0J
1H
0F
1P
0M
0E
1D
10
01
0T
1R
1<
0>
0*
1(
#335000
1!
1J
1T
1O
0N
0B
1C
1>
1*
1/
0.
0U
0T
1Q
1;
0>
0?
0+
0*
1'
#340000
1"
0$
0!
0J
0H
1I
#345000
1#
1!
1J
1F
1U
1T
1N
0P
1M
1E
0D
1B
1>
1?
1+
1*
1.
00
11
1V
0T
0>
1@
1,
0*
#350000
1$
0!
0J
1H
#355000
1!
1J
1K
0U
0O
0N
0B
0C
0?
0+
0/
0.
1P
0V
0R
0Q
0;
0<
0@
1D
10
0,
0(
0'
1U
1T
1S
1Q
1;
1=
1>
1?
1+
1*
1)
1'
#360000
0&
1%
0"
0#
0$
0!
0J
0H
0F
0I
1G
0L
0K
1O
0M
0E
1C
1/
01
0P
0U
0T
0S
1R
1<
0=
0>
0?
0D
00
0+
0*
0)
1(
1V
1S
0R
0Q
0;
0<
1=
1@
1,
1)
0(
0'
#365000
1!
1J
1U
1N
1B
1?
1+
1.
0S
0=
0)
#370000
1$
0!
0J
1H
#375000
1#
1!
1J
1F
1K
0U
0O
0N
1P
1D
0B
0C
0?
0+
0/
0.
10
0P
1M
0V
1U
1T
1Q
1;
1>
1?
0@
1E
0D
00
11
0,
1+
1*
1'
0U
0T
0Q
0;
0>
0?
0+
0*
0'
#380000
1"
0$
0!
0J
0H
1I
#385000
1!
1J
1U
1T
1N
1B
1>
1?
1+
1*
1.
#390000
0#
1$
0!
0J
1H
0F
1P
0M
0E
1D
10
01
0T
1R
1<
0>
0*
1(
#395000
1!
1J
1T
1O
0N
0B
1C
1>
1*
1/
0.
0U
0T
1Q
1;
0>
0?
0+
0*
1'
#400000
0%
0"
0$
0!
0J
0H
0I
0G
0K
0O
0C
0/
0P
1U
1T
0R
0<
1>
1?
0D
00
1+
1*
0(
1W
0U
0T
0Q
0;
0>
0?
1A
1-
0+
0*
0'
#405000
1#
1!
1J
1F
1U
1T
1N
1P
1D
1B
1>
1?
1+
1*
1.
10
0W
1R
0T
0>
1<
0A
0-
1(
0*
#410000
1$
0!
0J
1H
#415000
1!
1J
1T
1O
0N
0B
1C
1>
1*
1/
0.
0U
0T
1Q
1;
0>
0?
0+
0*
1'
#420000
1&
1"
0#
0$
0!
0J
0H
0F
1I
1L
#425000
1!
1J
1U
1T
1N
1B
1>
1?
1+
1*
1.
1W
1V
0R
0Q
0;
0<
1@
1A
1-
1,
0(
0'
#430000
1$
0!
0J
1H
#435000
1#
1!
1J
1F
1K
0U
0T
0O
0N
0P
1M
1E
0D
0B
0C
0>
0?
0+
0*
0/
0.
00
11
1P
0W
0V
0@
0A
1D
10
0-
0,
1U
1T
1S
1Q
1;
1=
1>
1?
1+
1*
1)
1'
#440000
1%
0"
0$
0!
0J
0H
0I
1G
0K
1O
1C
1/
0P
0U
0T
1R
1<
0>
0?
0D
00
0+
0*
1(
1V
1@
1,
#445000
1!
1J
1U
1N
1B
1?
1+
1.
0S
0=
0)
#450000
0#
1$
0!
0J
1H
0F
1P
0M
0E
1D
10
01
1W
1T
0R
0Q
0;
0<
1>
1A
1-
1*
0(
0'
#455000
1!
1J
1K
0U
0T
0O
0N
0B
0C
0>
0?
0+
0*
0/
0.
0P
1M
0W
0V
1U
1T
1Q
1;
1>
1?
0@
0A
1E
0D
00
11
0-
0,
1+
1*
1'
0U
0T
0Q
0;
0>
0?
0+
0*
0'
#460000
1"
0$
0!
0J
0H
1I
#465000
1#
1!
1J
1F
1U
1T
1N
1P
1D
1B
1>
1?
1+
1*
1.
10
1S
1R
0T
0>
1<
1=
1)
1(
0*
#470000
1$
0!
0J
1H
#475000
1!
1J
1T
1O
0N
0B
1C
1>
1*
1/
0.
0U
0T
1Q
1;
0>
0?
0+
0*
1'
#480000
0&
0%
0"
0#
0$
0!
0J
0H
0F
0I
0G
0L
0K
0O
0M
0E
0C
0/
01
0P
1U
1T
0S
0R
0<
0=
1>
1?
0D
00
1+
1*
0)
0(
1W
0U
0T
0Q
0;
0>
0?
1A
1-
0+
0*
0'
#485000
1!
1J
1U
1T
1N
1B
1>
1?
1+
1*
1.
1V
1Q
1;
1@
1,
1'
#490000
1$
0!
0J
1H
#495000
1#
1!
1J
1F
0U
0T
1O
0N
1P
1D
0B
1C
0>
0?
0+
0*
1/
0.
10
0W
0V
1R
1<
0@
0A
0-
0,
1(
#500000
1"
0$
0!
0J
0H
1I
#505000
1!
1J
1U
1T
1N
1B
1>
1?
1+
1*
1.
1W
1V
0R
0Q
0;
0<
1@
1A
1-
1,
0(
0'
#510000
0#
1$
0!
0J
1H
0F
0P
0D
00
0W
0T
0>
0A
0-
0*
#515000
1!
1J
1K
0U
0O
0N
0B
0C
0?
0+
0/
0.
1P
1W
0V
0@
1A
1D
10
1-
0,
0W
1U
1T
1Q
1;
1>
1?
0A
0-
1+
1*
1'
#520000
1%
0"
0$
0!
0J
0H
0I
1G
0K
1O
1C
1/
0P
0U
0T
1R
1<
0>
0?
0D
00
0+
0*
1(
1V
1S
0R
0Q
0;
0<
1=
1@
1,
1)
0(
0'
#525000
1#
1!
1J
1F
1U
1N
1P
1D
1B
1?
1+
1.
10
1W
0S
1T
1>
0=
1A
1-
0)
1*
#530000
1$
0!
0J
1H
#535000
1!
1J
1K
0U
0T
0O
0N
0B
0C
0>
0?
0+
0*
0/
0.
0P
1M
0W
0V
1U
1T
1Q
1;
1>
1?
0@
0A
1E
0D
00
11
0-
0,
1+
1*
1'
0U
0T
0Q
0;
0>
0?
0+
0*
0'
#540000
1&
1"
0#
0$
0!
0J
0H
0F
1I
1L
#545000
1!
1J
1U
1T
1N
1B
1>
1?
1+
1*
1.
#550000
1$
0!
0J
1H
#555000
1#
1!
1J
1F
0U
0T
1O
0N
1P
1D
0B
1C
0>
0?
0+
0*
1/
0.
10
1S
1R
1Q
1;
1<
1=
1)
1(
1'
#560000
0%
0"
0$
0!
0J
0H
0I
0G
0K
0O
0C
0/
0P
1U
1T
0R
0<
1>
1?
0D
00
1+
1*
0(
0U
0T
0S
0Q
0;
0=
0>
0?
0+
0*
0)
0'
#565000
1!
1J
1U
1T
1N
1B
1>
1?
1+
1*
1.
#570000
0#
1$
0!
0J
1H
0F
1P
0M
0E
1D
10
01
0T
1R
1<
0>
0*
1(
#575000
1!
1J
1T
1O
0N
0B
1C
1>
1*
1/
0.
0U
0T
1Q
1;
0>
0?
0+
0*
1'
#580000
1"
0$
0!
0J
0H
1I
#585000
1#
1!
1J
1F
1U
1T
1N
0P
1M
1E
0D
1B
1>
1?
1+
1*
1.
00
11
1V
0T
0>
1@
1,
0*
#590000
1$
0!
0J
1H
#595000
1!
1J
1K
0U
0O
0N
0B
0C
0?
0+
0/
0.
1P
0V
0R
0Q
0;
0<
0@
1D
10
0,
0(
0'
1U
1T
1S
1Q
1;
1=
1>
1?
1+
1*
1)
1'
#600000
0&
1%
0"
0#
0$
0!
0J
0H
0F
0I
1G
0L
0K
1O
0M
0E
1C
1/
01
0P
0U
0T
0S
1R
1<
0=
0>
0?
0D
00
0+
0*
0)
1(
1V
1S
0R
0Q
0;
0<
1=
1@
1,
1)
0(
0'
#605000
1!
1J
1U
1N
1B
1?
1+
1.
0S
0=
0)
#610000
1$
0!
0J
1H
#615000
1#
1!
1J
1F
1K
0U
0O
0N
1P
1D
0B
0C
0?
0+
0/
0.
10
0P
1M
0V
1U
1T
1Q
1;
1>
1?
0@
1E
0D
00
11
0,
1+
1*
1'
0U
0T
0Q
0;
0>
0?
0+
0*
0'
#620000
1"
0$
0!
0J
0H
1I
#625000
1!
1J
1U
1T
1N
1B
1>
1?
1+
1*
1.
#630000
0#
1$
0!
0J
1H
0F
1P
0M
0E
1D
10
01
0T
1R
1<
0>
0*
1(
#635000
1!
1J
1T
1O
0N
0B
1C
1>
1*
1/
0.
0U
0T
1Q
1;
0>
0?
0+
0*
1'
#640000
0%
0"
0$
0!
0J
0H
0I
0G
0K
0O
0C
0/
0P
1U
1T
0R
0<
1>
1?
0D
00
1+
1*
0(
1W
0U
0T
0Q
0;
0>
0?
1A
1-
0+
0*
0'
#645000
1#
1!
1J
1F
1U
1T
1N
1P
1D
1B
1>
1?
1+
1*
1.
10
0W
1R
0T
0>
1<
0A
0-
1(
0*
#650000
1$
0!
0J
1H
#655000
1!
1J
1T
1O
0N
0B
1C
1>
1*
1/
0.
0U
0T
1Q
1;
0>
0?
0+
0*
1'
#660000
1&
1"
0#
0$
0!
0J
0H
0F
1I
1L
#665000
1!
1J
1U
1T
1N
1B
1>
1?
1+
1*
1.
1W
1V
0R
0Q
0;
0<
1@
1A
1-
1,
0(
0'
#670000
1$
0!
0J
1H
#675000
1#
1!
1J
1F
1K
0U
0T
0O
0N
0P
1M
1E
0D
0B
0C
0>
0?
0+
0*
0/
0.
00
11
1P
0W
0V
0@
0A
1D
10
0-
0,
1U
1T
1S
1Q
1;
1=
1>
1?
1+
1*
1)
1'
#680000
1%
0"
0$
0!
0J
0H
0I
1G
0K
1O
1C
1/
0P
0U
0T
1R
1<
0>
0?
0D
00
0+
0*
1(
1V
1@
1,
#685000
1!
1J
1U
1N
1B
1?
1+
1.
0S
0=
0)
#690000
0#
1$
0!
0J
1H
0F
1P
0M
0E
1D
10
01
1W
1T
0R
0Q
0;
0<
1>
1A
1-
1*
0(
0'
#695000
1!
1J
1K
0U
0T
0O
0N
0B
0C
0>
0?
0+
0*
0/
0.
0P
1M
0W
0V
1U
1T
1Q
1;
1>
1?
0@
0A
1E
0D
00
11
0-
0,
1+
1*
1'
0U
0T
0Q
0;
0>
0?
0+
0*
0'
#700000
1"
0$
0!
0J
0H
1I
#705000
1#
1!
1J
1F
1U
1T
1N
1P
1D
1B
1>
1?
1+
1*
1.
10
1S
1R
0T
0>
1<
1=
1)
1(
0*
#710000
1$
0!
0J
1H
#715000
1!
1J
1T
1O
0N
0B
1C
1>
1*
1/
0.
0U
0T
1Q
1;
0>
0?
0+
0*
1'
#720000
0&
0%
0"
0#
0$
0!
0J
0H
0F
0I
0G
0L
0K
0O
0M
0E
0C
0/
01
0P
1U
1T
0S
0R
0<
0=
1>
1?
0D
00
1+
1*
0)
0(
1W
0U
0T
0Q
0;
0>
0?
1A
1-
0+
0*
0'
#725000
1!
1J
1U
1T
1N
1B
1>
1?
1+
1*
1.
1V
1Q
1;
1@
1,
1'
#730000
1$
0!
0J
1H
#735000
1#
1!
1J
1F
0U
0T
1O
0N
1P
1D
0B
1C
0>
0?
0+
0*
1/
0.
10
0W
0V
1R
1<
0@
0A
0-
0,
1(
#740000
1"
0$
0!
0J
0H
1I
#745000
1!
1J
1U
1T
1N
1B
1>
1?
1+
1*
1.
1W
1V
0R
0Q
0;
0<
1@
1A
1-
1,
0(
0'
#750000
0#
1$
0!
0J
1H
0F
0P
0D
00
0W
0T
0>
0A
0-
0*
#755000
1!
1J
1K
0U
0O
0N
0B
0C
0?
0+
0/
0.
1P
1W
0V
0@
1A
1D
10
1-
0,
0W
1U
1T
1Q
1;
1>
1?
0A
0-
1+
1*
1'
#760000
1%
0"
0$
0!
0J
0H
0I
1G
0K
1O
1C
1/
0P
0U
0T
1R
1<
0>
0?
0D
00
0+
0*
1(
1V
1S
0R
0Q
0;
0<
1=
1@
1,
1)
0(
0'
#765000
1#
1!
1J
1F
1U
1N
1P
1D
1B
1?
1+
1.
10
1W
0S
1T
1>
0=
1A
1-
0)
1*
#770000
1$
0!
0J
1H
#775000
1!
1J
1K
0U
0T
0O
0N
0B
0C
0>
0?
0+
0*
0/
0.
0P
1M
0W
0V
1U
1T
1Q
1;
1>
1?
0@
0A
1E
0D
00
11
0-
0,
1+
1*
1'
0U
0T
0Q
0;
0>
0?
0+
0*
0'
#780000
1&
1"
0#
0$
0!
0J
0H
0F
1I
1L
#785000
1!
1J
1U
1T
1N
1B
1>
1?
1+
1*
1.
#790000
1$
0!
0J
1H
#795000
1#
1!
1J
1F
0U
0T
1O
0N
1P
1D
0B
1C
0>
0?
0+
0*
1/
0.
10
1S
1R
1Q
1;
1<
1=
1)
1(
1'
#800000
0%
0"
0$
0!
0J
0H
0I
0G
0K
0O
0C
0/
0P
1U
1T
0R
0<
1>
1?
0D
00
1+
1*
0(
0U
0T
0S
0Q
0;
0=
0>
0?
0+
0*
0)
0'
#805000
1!
1J
1U
1T
1N
1B
1>
1?
1+
1*
1.
#810000
0#
1$
0!
0J
1H
0F
1P
0M
0E
1D
10
01
0T
1R
1<
0>
0*
1(
#815000
1!
1J
1T
1O
0N
0B
1C
1>
1*
1/
0.
0U
0T
1Q
1;
0>
0?
0+
0*
1'
#820000
1"
0$
0!
0J
0H
1I
#825000
1#
1!
1J
1F
1U
1T
1N
0P
1M
1E
0D
1B
1>
1?
1+
1*
1.
00
11
1V
0T
0>
1@
1,
0*
#830000
1$
0!
0J
1H
#835000
1!
1J
1K
0U
0O
0N
0B
0C
0?
0+
0/
0.
1P
0V
0R
0Q
0;
0<
0@
1D
10
0,
0(
0'
1U
1T
1S
1Q
1;
1=
1>
1?
1+
1*
1)
1'
#840000
0&
1%
0"
0#
0$
0!
0J
0H
0F
0I
1G
0L
0K
1O
0M
0E
1C
1/
01
0P
0U
0T
0S
1R
1<
0=
0>
0?
0D
00
0+
0*
0)
1(
1V
1S
0R
0Q
0;
0<
1=
1@
1,
1)
0(
0'
#845000
1!
1J
1U
1N
1B
1?
1+
1.
0S
0=
0)
#850000
1$
0!
0J
1H
#855000
1#
1!
1J
1F
1K
0U
0O
0N
1P
1D
0B
0C
0?
0+
0/
0.
10
0P
1M
0V
1U
1T
1Q
1;
1>
1?
0@
1E
0D
00
11
0,
1+
1*
1'
0U
0T
0Q
0;
0>
0?
0+
0*
0'
#860000
1"
0$
0!
0J
0H
1I
#865000
1!
1J
1U
1T
1N
1B
1>
1?
1+
1*
1.
#870000
0#
1$
0!
0J
1H
0F
1P
0M
0E
1D
10
01
0T
1R
1<
0>
0*
1(
#875000
1!
1J
1T
1O
0N
0B
1C
1>
1*
1/
0.
0U
0T
1Q
1;
0>
0?
0+
0*
1'
#880000
0%
0"
0$
0!
0J
0H
0I
0G
0K
0O
0C
0/
0P
1U
1T
0R
0<
1>
1?
0D
00
1+
1*
0(
1W
0U
0T
0Q
0;
0>
0?
1A
1-
0+
0*
0'
#885000
1#
1!
1J
1F
1U
1T
1N
1P
1D
1B
1>
1?
1+
1*
1.
10
0W
1R
0T
0>
1<
0A
0-
1(
0*
#890000
1$
0!
0J
1H
#895000
1!
1J
1T
1O
0N
0B
1C
1>
1*
1/
0.
0U
0T
1Q
1;
0>
0?
0+
0*
1'
#900000
1&
1"
0#
0$
0!
0J
0H
0F
1I
1L
#905000
1!
1J
1U
1T
1N
1B
1>
1?
1+
1*
1.
1W
1V
0R
0Q
0;
0<
1@
1A
1-
1,
0(
0'
#910000
1$
0!
0J
1H
#915000
1#
1!
1J
1F
1K
0U
0T
0O
0N
0P
1M
1E
0D
0B
0C
0>
0?
0+
0*
0/
0.
00
11
1P
0W
0V
0@
0A
1D
10
0-
0,
1U
1T
1S
1Q
1;
1=
1>
1?
1+
1*
1)
1'
#920000
1%
0"
0$
0!
0J
0H
0I
1G
0K
1O
1C
1/
0P
0U
0T
1R
1<
0>
0?
0D
00
0+
0*
1(
1V
1@
1,
#925000
1!
1J
1U
1N
1B
1?
1+
1.
0S
0=
0)
#930000
0#
1$
0!
0J
1H
0F
1P
0M
0E
1D
10
01
1W
1T
0R
0Q
0;
0<
1>
1A
1-
1*
0(
0'
#935000
1!
1J
1K
0U
0T
0O
0N
0B
0C
0>
0?
0+
0*
0/
0.
0P
1M
0W
0V
1U
1T
1Q
1;
1>
1?
0@
0A
1E
0D
00
11
0-
0,
1+
1*
1'
0U
0T
0Q
0;
0>
0?
0+
0*
0'
#940000
1"
0$
0!
0J
0H
1I
#945000
1#
1!
1J
1F
1U
1T
1N
1P
1D
1B
1>
1?
1+
1*
1.
10
1S
1R
0T
0>
1<
1=
1)
1(
0*
#950000
1$
0!
0J
1H
#955000
1!
1J
1T
1O
0N
0B
1C
1>
1*
1/
0.
0U
0T
1Q
1;
0>
0?
0+
0*
1'
#960000
0&
0%
0"
0#
0$
0!
0J
0H
0F
0I
0G
0L
0K
0O
0M
0E
0C
0/
01
0P
1U
1T
0S
0R
0<
0=
1>
1?
0D
00
1+
1*
0)
0(
1W
0U
0T
0Q
0;
0>
0?
1A
1-
0+
0*
0'
#965000
1!
1J
1U
1T
1N
1B
1>
1?
1+
1*
1.
1V
1Q
1;
1@
1,
1'
#970000
1$
0!
0J
1H
#975000
1#
1!
1J
1F
0U
0T
1O
0N
1P
1D
0B
1C
0>
0?
0+
0*
1/
0.
10
0W
0V
1R
1<
0@
0A
0-
0,
1(
#980000
1"
0$
0!
0J
0H
1I
#985000
1!
1J
1U
1T
1N
1B
1>
1?
1+
1*
1.
1W
1V
0R
0Q
0;
0<
1@
1A
1-
1,
0(
0'
#990000
0#
1$
0!
0J
1H
0F
0P
0D
00
0W
0T
0>
0A
0-
0*
#995000
1!
1J
1K
0U
0O
0N
0B
0C
0?
0+
0/
0.
1P
1W
0V
0@
1A
1D
10
1-
0,
0W
1U
1T
1Q
1;
1>
1?
0A
0-
1+
1*
1'
