Assignment2/excercise2/simulation/qsim/exercise1.msim.vcd
$comment
	File created using the following command:
		vcd file exercise1.msim.vcd -direction
$end
$date
	Thu Sep 14 14:17:00 2023
$end
$version
	ModelSim Version 2020.1
$end
$timescale
	1ps
$end

$scope module exercise1_vlg_vec_tst $end
$var reg 1 ! S0 $end
$var reg 1 " S1 $end
$var wire 1 # L0 $end

$scope module i1 $end
$var wire 1 $ gnd $end
$var wire 1 % vcc $end
$var wire 1 & unknown $end
$var tri1 1 ' devclrn $end
$var tri1 1 ( devpor $end
$var tri1 1 ) devoe $end
$var wire 1 * ~QUARTUS_CREATED_GND~I_combout $end
$var wire 1 + ~QUARTUS_CREATED_UNVM~~busy $end
$var wire 1 , ~QUARTUS_CREATED_ADC1~~eoc $end
$var wire 1 - L0~output_o $end
$var wire 1 . S1~input_o $end
$var wire 1 / S0~input_o $end
$var wire 1 0 inst~combout $end
$upscope $end
$upscope $end
$enddefinitions $end
#0
$dumpvars
1!
0"
0#
0$
1%
x&
1'
1(
1)
0*
z+
z,
0-
0.
1/
00
$end
#3146
1"
1.
10
1-
1#
#5212
0"
0.
00
0-
0#
#9812
1"
1.
10
1-
1#
#11878
0"
0.
00
0-
0#
#16478
1"
1.
10
1-
1#
#18544
0"
0.
00
0-
0#
#21082
1"
1.
10
1-
1#
#23748
0"
0.
00
0-
0#
#27748
1"
1.
10
1-
1#
#30414
0"
0.
00
0-
0#
#34414
1"
1.
10
1-
1#
#37080
0"
0.
00
0-
0#
#42241
1"
1.
10
1-
1#
#45707
0"
0.
00
0-
0#
#48907
1"
1.
10
1-
1#
#52373
0"
0.
00
0-
0#
#55573
1"
1.
10
1-
1#
#59039
0"
0.
00
0-
0#
#60000
1"
1.
10
1-
1#
#63178
0"
0.
00
0-
0#
#65912
1"
1.
10
1-
1#
#69844
0"
0.
00
0-
0#
#72578
1"
1.
10
1-
1#
#76510
0"
0.
00
0-
0#
#79244
1"
1.
10
1-
1#
#80000
0"
0.
00
0-
0#
#82049
1"
1.
10
1-
1#
#83999
0"
0.
00
0-
0#
#87049
1"
1.
10
1-
1#
#88999
0"
0.
00
0-
0#
#90000
1"
1.
10
1-
1#
#97833
0"
0.
00
0-
0#
#100000
0!
0/
#108433
1"
1.
#110000
0"
0.
#110488
1"
1.
#112354
0"
0.
#113821
1"
1.
#115687
0"
0.
#117154
1"
1.
#119020
0"
0.
#120519
1"
1.
#121918
0"
0.
#123852
1"
1.
#125251
0"
0.
#127185
1"
1.
#128584
0"
0.
#130000
1"
1.
#130252
0"
0.
#141652
1"
1.
#151094
0"
0.
#153261
1"
1.
#154427
0"
0.
#156594
1"
1.
#157760
0"
0.
#159927
1"
1.
#160000
0"
0.
#165741
1"
1.
#168941
0"
0.
#170000
1"
1.
#170531
0"
0.
#174598
1"
1.
#177197
0"
0.
#181264
1"
1.
#183863
0"
0.
#187930
1"
1.
#190000
0"
0.
#191004
1"
1.
#192937
0"
0.
#194337
1"
1.
#196270
0"
0.
#197670
1"
1.
#199603
0"
0.
#201878
1"
1.
#204211
0"
0.
#208544
1"
1.
#210877
0"
0.
#215210
1"
1.
#217543
0"
0.
#220000
1"
1.
#228257
0"
0.
#239057
1"
1.
#240000
0"
0.
#241954
1"
1.
#243904
0"
0.
#246954
1"
1.
#248904
0"
0.
#250197
1"
1.
#251563
0"
0.
#253530
1"
1.
#254896
0"
0.
#256863
1"
1.
#258229
0"
0.
#260000
1"
1.
#260039
0"
0.
#262973
1"
1.
#266705
0"
0.
#269639
1"
1.
#273371
0"
0.
#276305
1"
1.
#280000
0"
0.
#280508
1"
1.
#285508
0"
0.
#290508
1"
1.
#295508
0"
0.
#300000
1!
1"
1.
1/
10
1-
1#
#301590
0"
0.
00
0-
0#
#303640
1"
1.
10
1-
1#
#306590
0"
0.
00
0-
0#
#308640
1"
1.
10
1-
1#
#310000
0"
0.
00
0-
0#
#310654
1"
1.
10
1-
1#
#314386
0"
0.
00
0-
0#
#317320
1"
1.
10
1-
1#
#321052
0"
0.
00
0-
0#
#323986
1"
1.
10
1-
1#
#327718
0"
0.
00
0-
0#
#333729
1"
1.
10
1-
1#
#338529
0"
0.
00
0-
0#
#343811
1"
1.
10
1-
1#
#350000
0!
0/
00
0-
0#
#351011
0"
0.
#360000
1"
1.
#361561
0"
0.
#374161
1"
1.
#380000
0"
0.
#381274
1"
1.
#382807
0"
0.
#384607
1"
1.
#386140
0"
0.
#387940
1"
1.
#389473
0"
0.
#390647
1"
1.
#393847
0"
0.
#400000
1!
1/
#400647
1"
1.
10
1-
1#
#403847
0"
0.
00
0-
0#
#410000
1"
1.
10
1-
1#
#413498
0"
0.
00
0-
0#
#419498
1"
1.
10
1-
1#
#423498
0"
0.
00
0-
0#
#429498
1"
1.
10
1-
1#
#430000
0"
0.
00
0-
0#
#433757
1"
1.
10
1-
1#
#437357
0"
0.
00
0-
0#
#443757
1"
1.
10
1-
1#
#447357
0"
0.
00
0-
0#
#450000
0!
0/
#451415
1"
1.
#452981
0"
0.
#454748
1"
1.
#456314
0"
0.
#458081
1"
1.
#459647
0"
0.
#460000
1"
1.
#463245
0"
0.
#467945
1"
1.
#473245
0"
0.
#477945
1"
1.
#481670
0"
0.
#488670
1"
1.
#491670
0"
0.
#498670
1"
1.
#500000
1!
1/
10
1-
1#
#501424
0"
0.
00
0-
0#
#508424
1"
1.
10
1-
1#
#511424
0"
0.
00
0-
0#
#518424
1"
1.
10
1-
1#
#520000
0"
0.
00
0-
0#
#527305
1"
1.
10
1-
1#
#538505
0"
0.
00
0-
0#
#540000
1"
1.
10
1-
1#
#540832
0"
0.
00
0-
0#
#545165
1"
1.
10
1-
1#
#547498
0"
0.
00
0-
0#
#551831
1"
1.
10
1-
1#
#554164
0"
0.
00
0-
0#
#558497
1"
1.
10
1-
1#
#561911
0"
0.
00
0-
0#
#565778
1"
1.
10
1-
1#
#568577
0"
0.
00
0-
0#
#572444
1"
1.
10
1-
1#
#575243
0"
0.
00
0-
0#
#579110
1"
1.
10
1-
1#
#582735
0"
0.
00
0-
0#
#587835
1"
1.
10
1-
1#
#592735
0"
0.
00
0-
0#
#597835
1"
1.
10
1-
1#
#600000
0!
0"
0.
0/
00
0-
0#
#605960
1"
1.
#609260
0"
0.
#615960
1"
1.
#619260
0"
0.
#629214
1"
1.
#636414
0"
0.
#640000
1"
1.
#642148
0"
0.
#646448
1"
1.
#650000
1!
1/
10
1-
1#
#652148
0"
0.
00
0-
0#
#656448
1"
1.
10
1-
1#
#660662
0"
0.
00
0-
0#
#673462
1"
1.
10
1-
1#
#680758
0"
0.
00
0-
0#
#684558
1"
1.
10
1-
1#
#687424
0"
0.
00
0-
0#
#691224
1"
1.
10
1-
1#
#694090
0"
0.
00
0-
0#
#697890
1"
1.
10
1-
1#
#700000
0"
0.
00
0-
0#
#704567
1"
1.
10
1-
1#
#707667
0"
0.
00
0-
0#
#710000
1"
1.
10
1-
1#
#711727
0"
0.
00
0-
0#
#716227
1"
1.
10
1-
1#
#720000
0"
0.
00
0-
0#
#721559
1"
1.
10
1-
1#
#725459
0"
0.
00
0-
0#
#731559
1"
1.
10
1-
1#
#735459
0"
0.
00
0-
0#
#743019
1"
1.
10
1-
1#
#745752
0"
0.
00
0-
0#
#749685
1"
1.
10
1-
1#
#750000
0!
0/
00
0-
0#
#752418
0"
0.
#756351
1"
1.
#759084
0"
0.
#765024
1"
1.
#768924
0"
0.
#775024
1"
1.
#778924
0"
0.
#780000
1"
1.
#782500
0"
0.
#789100
1"
1.
#791507
0"
0.
#795507
1"
1.
#800000
1!
0"
0.
1/
#804982
1"
1.
10
1-
1#
#809182
0"
0.
00
0-
0#
#814982
1"
1.
10
1-
1#
#819182
0"
0.
00
0-
0#
#821736
1"
1.
10
1-
1#
#823886
0"
0.
00
0-
0#
#826736
1"
1.
10
1-
1#
#828886
0"
0.
00
0-
0#
#830000
1"
1.
10
1-
1#
#833717
0"
0.
00
0-
0#
#836651
1"
1.
10
1-
1#
#840383
0"
0.
00
0-
0#
#843317
1"
1.
10
1-
1#
#847049
0"
0.
00
0-
0#
#849983
1"
1.
10
1-
1#
#851130
0"
0.
00
0-
0#
#852464
1"
1.
10
1-
1#
#854463
0"
0.
00
0-
0#
#855797
1"
1.
10
1-
1#
#857796
0"
0.
00
0-
0#
#859130
1"
1.
10
1-
1#
#861426
0"
0.
00
0-
0#
#862926
1"
1.
10
1-
1#
#864759
0"
0.
00
0-
0#
#866259
1"
1.
10
1-
1#
#868092
0"
0.
00
0-
0#
#869592
1"
1.
10
1-
1#
#870597
0"
0.
00
0-
0#
#872497
1"
1.
10
1-
1#
#873930
0"
0.
00
0-
0#
#875830
1"
1.
10
1-
1#
#877263
0"
0.
00
0-
0#
#879163
1"
1.
10
1-
1#
#880000
0"
0.
00
0-
0#
#880533
1"
1.
10
1-
1#
#887533
0"
0.
00
0-
0#
#900000
0!
0/
#902728
1"
1.
#907328
0"
0.
#912728
1"
1.
#917328
0"
0.
#920875
1"
1.
#924875
0"
0.
#932526
1"
1.
#934626
0"
0.
#937526
1"
1.
#939626
0"
0.
#942793
1"
1.
#947293
0"
0.
#951943
1"
1.
#953142
0"
0.
#955276
1"
1.
#956475
0"
0.
#958609
1"
1.
#959808
0"
0.
#960609
1"
1.
#963909
0"
0.
#970609
1"
1.
#973909
0"
0.
#980000
1"
1.
#980750
0"
0.
#994150
1"
1.
