Assignment71/excercise1/simulation/qsim/exercise1.msim.vcd
$comment
	File created using the following command:
		vcd file exercise1.msim.vcd -direction
$end
$date
	Tue Oct 31 14:43:09 2023
$end
$version
	ModelSim Version 2020.1
$end
$timescale
	1ps
$end

$scope module exercise1_vlg_vec_tst $end
$var reg 1 ! Ci $end
$var reg 1 " CLK $end
$var reg 1 # Co $end
$var wire 1 $ A $end
$var wire 1 % B $end
$var wire 1 & C $end
$var wire 1 ' D $end
$var wire 1 ( E $end
$var wire 1 ) F $end
$var wire 1 * G $end
$var wire 1 + L0 $end
$var wire 1 , L1 $end

$scope module i1 $end
$var wire 1 - gnd $end
$var wire 1 . vcc $end
$var wire 1 / unknown $end
$var tri1 1 0 devclrn $end
$var tri1 1 1 devpor $end
$var tri1 1 2 devoe $end
$var wire 1 3 ~QUARTUS_CREATED_GND~I_combout $end
$var wire 1 4 ~QUARTUS_CREATED_UNVM~~busy $end
$var wire 1 5 ~QUARTUS_CREATED_ADC1~~eoc $end
$var wire 1 6 A~output_o $end
$var wire 1 7 B~output_o $end
$var wire 1 8 C~output_o $end
$var wire 1 9 D~output_o $end
$var wire 1 : E~output_o $end
$var wire 1 ; F~output_o $end
$var wire 1 < G~output_o $end
$var wire 1 = L1~output_o $end
$var wire 1 > L0~output_o $end
$var wire 1 ? CLK~input_o $end
$var wire 1 @ CLK~inputclkctrl_outclk $end
$var wire 1 A Co~input_o $end
$var wire 1 B Ci~input_o $end
$var wire 1 C inst12~0_combout $end
$var wire 1 D inst~q $end
$var wire 1 E inst19~0_combout $end
$var wire 1 F inst3~q $end
$var wire 1 G inst1|5~0_combout $end
$var wire 1 H inst1|5~1_combout $end
$var wire 1 I inst1|86~combout $end
$upscope $end
$upscope $end
$enddefinitions $end
#0
$dumpvars
1!
0"
1#
0$
0%
0&
0'
0(
0)
1*
0+
0,
0-
1.
x/
10
11
12
03
z4
z5
06
07
08
09
0:
0;
1<
0=
0>
0?
0@
1A
1B
0C
0D
1E
0F
0G
0H
0I
$end
#5000
0!
0B
#15000
1!
1B
#20000
0!
0B
#25000
0#
1!
1B
0A
#30000
1"
1#
1A
1?
1@
1F
0<
1>
1+
0*
1I
1H
0E
1C
18
1;
1)
1&
#35000
0!
0B
0C
#50000
0#
0A
1E
#55000
1!
1B
0E
1C
#60000
0"
1#
1A
0?
0@
#65000
0!
0B
0C
#70000
1!
1B
1C
#80000
0#
0!
0B
0A
1E
0C
#85000
1#
1!
1B
1A
0E
1C
#90000
1"
0!
0B
1?
1@
0C
0F
1D
1<
1:
1=
0>
0+
1,
1(
1*
0H
1G
1E
16
19
08
0&
1'
1$
#95000
0#
1!
1B
0A
1C
#110000
1#
0!
0B
1A
0C
#115000
1!
1B
#120000
0"
0#
0A
0?
0@
1C
#125000
0!
0B
0E
#130000
1#
1!
1B
1A
1E
0C
#135000
0#
0!
0B
0A
0E
1C
#145000
1#
1A
1E
0C
#150000
1"
1?
1@
1F
0D
0<
0:
0=
1>
1+
0,
0(
0*
1H
0G
0E
06
09
18
1&
0'
0$
#155000
1!
1B
1C
#160000
0#
0A
#165000
1#
1A
#170000
0!
0B
0C
#180000
0"
1!
1B
0?
0@
1C
#185000
0!
0B
0C
#190000
0#
0A
1E
#195000
1!
1B
0E
1C
#200000
0!
0B
1E
0C
#205000
1!
1B
0E
1C
#210000
1"
1?
1@
0F
1D
1<
1:
1=
0>
0+
1,
1(
1*
0H
1G
1E
16
19
08
0&
1'
1$
#215000
1#
0!
0B
1A
0C
#220000
0#
1!
1B
0A
1C
#225000
1#
0!
0B
1A
0C
#230000
1!
1B
#235000
0#
0!
0B
0A
0E
1C
#240000
0"
0?
0@
#245000
1#
1!
1B
1A
1E
0C
#250000
0!
0B
#255000
1!
1B
#260000
0#
0A
1C
#270000
1"
0!
1#
1A
0B
1?
1@
0C
1F
0<
1>
1+
0*
0G
0E
1C
06
09
0'
0$
#275000
1!
0#
0A
1B
1E
#280000
0!
0B
#285000
1#
1!
1B
1A
#290000
0#
0A
#295000
0!
0B
#300000
0"
1!
1B
0?
0@
#310000
0!
0B
#315000
1#
1!
1B
1A
#320000
0#
0A
#325000
1#
1A
#330000
1"
0#
0A
1?
1@
#335000
0!
0B
#340000
1#
1A
0E
#345000
1!
1B
1E
#360000
0"
0?
0@
#365000
0!
0B
0E
#375000
0#
0A
1E
#380000
1#
1A
0E
#390000
1"
0#
0A
1?
1@
1E
0F
1<
0>
0+
1*
1G
0E
16
19
1'
1$
#400000
1!
1B
1E
#405000
0!
0B
0E
#410000
1#
1A
1E
0C
#415000
1!
1B
#420000
0"
0?
0@
#425000
0!
0B
#430000
1!
1B
#435000
0#
0A
1C
#440000
0!
1#
1A
0B
0C
#445000
1!
1B
#450000
1"
0#
0A
1?
1@
1C
1F
0D
0<
0:
0=
1>
1+
0,
0(
0*
1H
0G
0E
06
09
18
1&
0'
0$
#460000
0!
0B
1E
0C
#465000
1#
1A
0E
#470000
1!
1B
1C
#475000
0#
0!
0B
0A
1E
0C
#480000
0"
1#
1!
1B
1A
0?
0@
0E
1C
#485000
0#
0A
#490000
1#
1A
#505000
0#
0A
#510000
1"
0!
1#
1A
0B
1?
1@
0C
0F
1D
1<
1:
1=
0>
0+
1,
1(
1*
0H
1G
1E
16
19
08
0&
1'
1$
#535000
0#
0A
0E
1C
#540000
0"
1!
1B
0?
0@
1E
#545000
1#
0!
0B
1A
0C
#550000
1!
1B
#555000
0#
0!
0B
0A
0E
1C
#560000
1#
1!
1B
1A
1E
0C
#565000
0#
0A
1C
#570000
1"
0!
1#
1A
0B
1?
1@
0C
1F
0<
1>
1+
0*
0G
0E
1C
06
09
0'
0$
#575000
1!
0#
0A
1B
1E
#585000
1#
1A
#595000
0!
0#
0A
0B
#600000
0"
1!
1B
0?
0@
#610000
0!
0B
#615000
1!
1B
#630000
1#
1"
0!
0B
1?
1A
1@
0E
#640000
0#
1!
1B
0A
1E
#655000
1#
0!
0B
1A
0E
#660000
0"
0#
0A
0?
0@
1E
#665000
1!
1#
1A
1B
#670000
0#
0A
#675000
0!
1#
1A
0B
0E
#680000
0#
0A
1E
#690000
1"
1!
1#
1A
1B
1?
1@
#695000
0#
0A
#700000
0!
0B
#705000
1!
1B
#710000
0!
0B
#715000
1!
1B
#720000
0"
1#
0!
0B
1A
0?
0@
0E
#725000
1!
1B
1E
#730000
0!
0B
0E
#750000
1"
1?
1@
0F
1<
0>
0+
1*
1G
1E
0C
16
19
1'
1$
#755000
1!
1B
#760000
0#
0A
1C
#765000
0!
1#
1A
0B
0C
#770000
1!
0#
0A
1B
1C
#775000
0!
0B
0E
#780000
0"
1#
1A
0?
0@
1E
0C
#785000
1!
0#
0A
1B
1C
#790000
0!
1#
1A
0B
0C
#800000
0#
0A
0E
1C
#805000
1#
1A
1E
0C
#810000
1"
1?
1@
1F
0D
0<
0:
0=
1>
1+
0,
0(
0*
1H
0G
0E
06
09
18
1&
0'
0$
#815000
1!
0#
0A
1B
1C
#825000
0!
0B
1E
0C
#830000
1!
1B
0E
1C
#840000
0"
1#
1A
0?
0@
#850000
0!
0B
0C
#860000
0#
1!
1B
0A
1C
#865000
1#
0!
0B
1A
0C
#870000
1"
1?
1@
0F
1<
0>
0+
1*
0I
0H
1E
08
0;
0)
0&
#880000
1!
1B
#890000
0#
0A
#895000
0!
0B
0E
#900000
0"
0?
0@
#905000
1#
1!
1B
1A
1E
#910000
0#
0!
0B
0A
0E
#915000
1#
1A
1E
#920000
1!
1B
#925000
0#
0!
0B
0A
0E
#930000
1"
1!
1B
1?
1@
1E
#945000
1#
0!
0B
1A
#950000
1!
1B
#955000
0#
0!
0B
0A
0E
#960000
0"
1#
1A
0?
0@
1E
#965000
1!
0#
0A
1B
#970000
0!
1#
1A
0B
#975000
1!
1B
#985000
0#
0A
#990000
1"
1?
1@
1F
0<
1>
1+
0*
1I
1H
0E
1C
18
1;
1)
1&
#995000
0!
1#
1A
0B
0C
