Assignment3/excercise1/simulation/qsim/exercise1.msim.vcd
$comment
	File created using the following command:
		vcd file exercise1.msim.vcd -direction
$end
$date
	Thu Oct 12 16:44:32 2023
$end
$version
	ModelSim Version 2020.1
$end
$timescale
	1ps
$end

$scope module exercise1_vlg_vec_tst $end
$var reg 1 ! S0 $end
$var reg 1 " S1 $end
$var reg 1 # S2 $end
$var reg 1 $ S3 $end
$var wire 1 % A $end
$var wire 1 & B $end
$var wire 1 ' C $end
$var wire 1 ( D $end
$var wire 1 ) E $end
$var wire 1 * F $end
$var wire 1 + G $end

$scope module i1 $end
$var wire 1 , gnd $end
$var wire 1 - vcc $end
$var wire 1 . unknown $end
$var tri1 1 / devclrn $end
$var tri1 1 0 devpor $end
$var tri1 1 1 devoe $end
$var wire 1 2 ~QUARTUS_CREATED_GND~I_combout $end
$var wire 1 3 ~QUARTUS_CREATED_UNVM~~busy $end
$var wire 1 4 ~QUARTUS_CREATED_ADC1~~eoc $end
$var wire 1 5 A~output_o $end
$var wire 1 6 B~output_o $end
$var wire 1 7 C~output_o $end
$var wire 1 8 D~output_o $end
$var wire 1 9 E~output_o $end
$var wire 1 : F~output_o $end
$var wire 1 ; G~output_o $end
$var wire 1 < S1~input_o $end
$var wire 1 = S3~input_o $end
$var wire 1 > S2~input_o $end
$var wire 1 ? S0~input_o $end
$var wire 1 @ inst1|81~0_combout $end
$var wire 1 A inst1|82~0_combout $end
$var wire 1 B inst1|83~combout $end
$var wire 1 C inst1|84~0_combout $end
$var wire 1 D inst1|85~combout $end
$var wire 1 E inst1|86~0_combout $end
$var wire 1 F inst1|87~combout $end
$upscope $end
$upscope $end
$enddefinitions $end
#0
$dumpvars
0!
0"
0#
0$
0%
0&
0'
0(
0)
0*
1+
0,
1-
x.
1/
10
11
02
z3
z4
05
06
07
08
09
0:
1;
0<
0=
0>
0?
0@
0A
0B
0C
0D
0E
1F
$end
#5000
1!
1?
1E
1D
1C
1@
15
18
19
1:
1*
1)
1(
1%
#10000
1"
0!
0?
1<
0F
0D
0C
1B
0@
05
17
08
09
0;
0+
0)
0(
1'
0%
#15000
1!
1?
1D
0B
07
19
1)
0'
#20000
1#
0"
0!
0?
0<
1>
0E
1C
1@
15
18
0:
0*
1(
1%
#25000
1!
1?
0C
1A
0@
05
16
08
0(
1&
0%
#30000
1"
0!
0?
1<
0D
1@
15
09
0)
1%
#35000
1!
1?
1F
1E
1D
1C
0A
0@
05
06
18
19
1:
1;
1+
1*
1)
1(
0&
0%
#40000
1$
0#
0"
0!
0?
0<
0>
1=
0F
0E
0D
0C
08
09
0:
0;
0+
0*
0)
0(
#45000
1!
1?
1D
1C
18
19
1)
1(
#50000
1"
0!
0?
1<
1E
0D
0C
1B
1A
1@
15
16
17
08
09
1:
1*
0)
0(
1'
1&
1%
#55000
1!
1?
1D
0B
07
19
1)
0'
#60000
1#
0"
0!
0?
0<
1>
0E
1C
1B
0A
06
17
18
0:
0*
1(
1'
0&
#65000
1!
1?
0C
1A
0@
05
16
08
0(
1&
0%
#70000
1"
0!
0?
1<
0D
1@
15
09
0)
1%
#75000
1!
1?
1F
1E
1D
1C
18
19
1:
1;
1+
1*
1)
1(
#80000
0$
0#
0"
0!
0?
0<
0>
0=
0E
0D
0C
0B
0A
0@
05
06
07
08
09
0:
0*
0)
0(
0'
0&
0%
#85000
1!
1?
1E
1D
1C
1@
15
18
19
1:
1*
1)
1(
1%
#90000
1"
0!
0?
1<
0F
0D
0C
1B
0@
05
17
08
09
0;
0+
0)
0(
1'
0%
#95000
1!
1?
1D
0B
07
19
1)
0'
#100000
1#
0"
0!
0?
0<
1>
0E
1C
1@
15
18
0:
0*
1(
1%
#105000
1!
1?
0C
1A
0@
05
16
08
0(
1&
0%
#110000
1"
0!
0?
1<
0D
1@
15
09
0)
1%
#115000
1!
1?
1F
1E
1D
1C
0A
0@
05
06
18
19
1:
1;
1+
1*
1)
1(
0&
0%
#120000
1$
0#
0"
0!
0?
0<
0>
1=
0F
0E
0D
0C
08
09
0:
0;
0+
0*
0)
0(
#125000
1!
1?
1D
1C
18
19
1)
1(
#130000
1"
0!
0?
1<
1E
0D
0C
1B
1A
1@
15
16
17
08
09
1:
1*
0)
0(
1'
1&
1%
#135000
1!
1?
1D
0B
07
19
1)
0'
#140000
1#
0"
0!
0?
0<
1>
0E
1C
1B
0A
06
17
18
0:
0*
1(
1'
0&
#145000
1!
1?
0C
1A
0@
05
16
08
0(
1&
0%
#150000
1"
0!
0?
1<
0D
1@
15
09
0)
1%
#155000
1!
1?
1F
1E
1D
1C
18
19
1:
1;
1+
1*
1)
1(
#160000
0$
0#
0"
0!
0?
0<
0>
0=
0E
0D
0C
0B
0A
0@
05
06
07
08
09
0:
0*
0)
0(
0'
0&
0%
#165000
1!
1?
1E
1D
1C
1@
15
18
19
1:
1*
1)
1(
1%
#170000
1"
0!
0?
1<
0F
0D
0C
1B
0@
05
17
08
09
0;
0+
0)
0(
1'
0%
#175000
1!
1?
1D
0B
07
19
1)
0'
#180000
1#
0"
0!
0?
0<
1>
0E
1C
1@
15
18
0:
0*
1(
1%
#185000
1!
1?
0C
1A
0@
05
16
08
0(
1&
0%
#190000
1"
0!
0?
1<
0D
1@
15
09
0)
1%
#195000
1!
1?
1F
1E
1D
1C
0A
0@
05
06
18
19
1:
1;
1+
1*
1)
1(
0&
0%
#200000
1$
0#
0"
0!
0?
0<
0>
1=
0F
0E
0D
0C
08
09
0:
0;
0+
0*
0)
0(
#205000
1!
1?
1D
1C
18
19
1)
1(
#210000
1"
0!
0?
1<
1E
0D
0C
1B
1A
1@
15
16
17
08
09
1:
1*
0)
0(
1'
1&
1%
#215000
1!
1?
1D
0B
07
19
1)
0'
#220000
1#
0"
0!
0?
0<
1>
0E
1C
1B
0A
06
17
18
0:
0*
1(
1'
0&
#225000
1!
1?
0C
1A
0@
05
16
08
0(
1&
0%
#230000
1"
0!
0?
1<
0D
1@
15
09
0)
1%
#235000
1!
1?
1F
1E
1D
1C
18
19
1:
1;
1+
1*
1)
1(
#240000
0$
0#
0"
0!
0?
0<
0>
0=
0E
0D
0C
0B
0A
0@
05
06
07
08
09
0:
0*
0)
0(
0'
0&
0%
#245000
1!
1?
1E
1D
1C
1@
15
18
19
1:
1*
1)
1(
1%
#250000
1"
0!
0?
1<
0F
0D
0C
1B
0@
05
17
08
09
0;
0+
0)
0(
1'
0%
#255000
1!
1?
1D
0B
07
19
1)
0'
#260000
1#
0"
0!
0?
0<
1>
0E
1C
1@
15
18
0:
0*
1(
1%
#265000
1!
1?
0C
1A
0@
05
16
08
0(
1&
0%
#270000
1"
0!
0?
1<
0D
1@
15
09
0)
1%
#275000
1!
1?
1F
1E
1D
1C
0A
0@
05
06
18
19
1:
1;
1+
1*
1)
1(
0&
0%
#280000
1$
0#
0"
0!
0?
0<
0>
1=
0F
0E
0D
0C
08
09
0:
0;
0+
0*
0)
0(
#285000
1!
1?
1D
1C
18
19
1)
1(
#290000
1"
0!
0?
1<
1E
0D
0C
1B
1A
1@
15
16
17
08
09
1:
1*
0)
0(
1'
1&
1%
#295000
1!
1?
1D
0B
07
19
1)
0'
#300000
1#
0"
0!
0?
0<
1>
0E
1C
1B
0A
06
17
18
0:
0*
1(
1'
0&
#305000
1!
1?
0C
1A
0@
05
16
08
0(
1&
0%
#310000
1"
0!
0?
1<
0D
1@
15
09
0)
1%
#315000
1!
1?
1F
1E
1D
1C
18
19
1:
1;
1+
1*
1)
1(
#320000
0$
0#
0"
0!
0?
0<
0>
0=
0E
0D
0C
0B
0A
0@
05
06
07
08
09
0:
0*
0)
0(
0'
0&
0%
#325000
1!
1?
1E
1D
1C
1@
15
18
19
1:
1*
1)
1(
1%
#330000
1"
0!
0?
1<
0F
0D
0C
1B
0@
05
17
08
09
0;
0+
0)
0(
1'
0%
#335000
1!
1?
1D
0B
07
19
1)
0'
#340000
1#
0"
0!
0?
0<
1>
0E
1C
1@
15
18
0:
0*
1(
1%
#345000
1!
1?
0C
1A
0@
05
16
08
0(
1&
0%
#350000
1"
0!
0?
1<
0D
1@
15
09
0)
1%
#355000
1!
1?
1F
1E
1D
1C
0A
0@
05
06
18
19
1:
1;
1+
1*
1)
1(
0&
0%
#360000
1$
0#
0"
0!
0?
0<
0>
1=
0F
0E
0D
0C
08
09
0:
0;
0+
0*
0)
0(
#365000
1!
1?
1D
1C
18
19
1)
1(
#370000
1"
0!
0?
1<
1E
0D
0C
1B
1A
1@
15
16
17
08
09
1:
1*
0)
0(
1'
1&
1%
#375000
1!
1?
1D
0B
07
19
1)
0'
#380000
1#
0"
0!
0?
0<
1>
0E
1C
1B
0A
06
17
18
0:
0*
1(
1'
0&
#385000
1!
1?
0C
1A
0@
05
16
08
0(
1&
0%
#390000
1"
0!
0?
1<
0D
1@
15
09
0)
1%
#395000
1!
1?
1F
1E
1D
1C
18
19
1:
1;
1+
1*
1)
1(
#400000
0$
0#
0"
0!
0?
0<
0>
0=
0E
0D
0C
0B
0A
0@
05
06
07
08
09
0:
0*
0)
0(
0'
0&
0%
#405000
1!
1?
1E
1D
1C
1@
15
18
19
1:
1*
1)
1(
1%
#410000
1"
0!
0?
1<
0F
0D
0C
1B
0@
05
17
08
09
0;
0+
0)
0(
1'
0%
#415000
1!
1?
1D
0B
07
19
1)
0'
#420000
1#
0"
0!
0?
0<
1>
0E
1C
1@
15
18
0:
0*
1(
1%
#425000
1!
1?
0C
1A
0@
05
16
08
0(
1&
0%
#430000
1"
0!
0?
1<
0D
1@
15
09
0)
1%
#435000
1!
1?
1F
1E
1D
1C
0A
0@
05
06
18
19
1:
1;
1+
1*
1)
1(
0&
0%
#440000
1$
0#
0"
0!
0?
0<
0>
1=
0F
0E
0D
0C
08
09
0:
0;
0+
0*
0)
0(
#445000
1!
1?
1D
1C
18
19
1)
1(
#450000
1"
0!
0?
1<
1E
0D
0C
1B
1A
1@
15
16
17
08
09
1:
1*
0)
0(
1'
1&
1%
#455000
1!
1?
1D
0B
07
19
1)
0'
#460000
1#
0"
0!
0?
0<
1>
0E
1C
1B
0A
06
17
18
0:
0*
1(
1'
0&
#465000
1!
1?
0C
1A
0@
05
16
08
0(
1&
0%
#470000
1"
0!
0?
1<
0D
1@
15
09
0)
1%
#475000
1!
1?
1F
1E
1D
1C
18
19
1:
1;
1+
1*
1)
1(
#480000
0$
0#
0"
0!
0?
0<
0>
0=
0E
0D
0C
0B
0A
0@
05
06
07
08
09
0:
0*
0)
0(
0'
0&
0%
#485000
1!
1?
1E
1D
1C
1@
15
18
19
1:
1*
1)
1(
1%
#490000
1"
0!
0?
1<
0F
0D
0C
1B
0@
05
17
08
09
0;
0+
0)
0(
1'
0%
#495000
1!
1?
1D
0B
07
19
1)
0'
#500000
1#
0"
0!
0?
0<
1>
0E
1C
1@
15
18
0:
0*
1(
1%
#505000
1!
1?
0C
1A
0@
05
16
08
0(
1&
0%
#510000
1"
0!
0?
1<
0D
1@
15
09
0)
1%
#515000
1!
1?
1F
1E
1D
1C
0A
0@
05
06
18
19
1:
1;
1+
1*
1)
1(
0&
0%
#520000
1$
0#
0"
0!
0?
0<
0>
1=
0F
0E
0D
0C
08
09
0:
0;
0+
0*
0)
0(
#525000
1!
1?
1D
1C
18
19
1)
1(
#530000
1"
0!
0?
1<
1E
0D
0C
1B
1A
1@
15
16
17
08
09
1:
1*
0)
0(
1'
1&
1%
#535000
1!
1?
1D
0B
07
19
1)
0'
#540000
1#
0"
0!
0?
0<
1>
0E
1C
1B
0A
06
17
18
0:
0*
1(
1'
0&
#545000
1!
1?
0C
1A
0@
05
16
08
0(
1&
0%
#550000
1"
0!
0?
1<
0D
1@
15
09
0)
1%
#555000
1!
1?
1F
1E
1D
1C
18
19
1:
1;
1+
1*
1)
1(
#560000
0$
0#
0"
0!
0?
0<
0>
0=
0E
0D
0C
0B
0A
0@
05
06
07
08
09
0:
0*
0)
0(
0'
0&
0%
#565000
1!
1?
1E
1D
1C
1@
15
18
19
1:
1*
1)
1(
1%
#570000
1"
0!
0?
1<
0F
0D
0C
1B
0@
05
17
08
09
0;
0+
0)
0(
1'
0%
#575000
1!
1?
1D
0B
07
19
1)
0'
#580000
1#
0"
0!
0?
0<
1>
0E
1C
1@
15
18
0:
0*
1(
1%
#585000
1!
1?
0C
1A
0@
05
16
08
0(
1&
0%
#590000
1"
0!
0?
1<
0D
1@
15
09
0)
1%
#595000
1!
1?
1F
1E
1D
1C
0A
0@
05
06
18
19
1:
1;
1+
1*
1)
1(
0&
0%
#600000
1$
0#
0"
0!
0?
0<
0>
1=
0F
0E
0D
0C
08
09
0:
0;
0+
0*
0)
0(
#605000
1!
1?
1D
1C
18
19
1)
1(
#610000
1"
0!
0?
1<
1E
0D
0C
1B
1A
1@
15
16
17
08
09
1:
1*
0)
0(
1'
1&
1%
#615000
1!
1?
1D
0B
07
19
1)
0'
#620000
1#
0"
0!
0?
0<
1>
0E
1C
1B
0A
06
17
18
0:
0*
1(
1'
0&
#625000
1!
1?
0C
1A
0@
05
16
08
0(
1&
0%
#630000
1"
0!
0?
1<
0D
1@
15
09
0)
1%
#635000
1!
1?
1F
1E
1D
1C
18
19
1:
1;
1+
1*
1)
1(
#640000
0$
0#
0"
0!
0?
0<
0>
0=
0E
0D
0C
0B
0A
0@
05
06
07
08
09
0:
0*
0)
0(
0'
0&
0%
#645000
1!
1?
1E
1D
1C
1@
15
18
19
1:
1*
1)
1(
1%
#650000
1"
0!
0?
1<
0F
0D
0C
1B
0@
05
17
08
09
0;
0+
0)
0(
1'
0%
#655000
1!
1?
1D
0B
07
19
1)
0'
#660000
1#
0"
0!
0?
0<
1>
0E
1C
1@
15
18
0:
0*
1(
1%
#665000
1!
1?
0C
1A
0@
05
16
08
0(
1&
0%
#670000
1"
0!
0?
1<
0D
1@
15
09
0)
1%
#675000
1!
1?
1F
1E
1D
1C
0A
0@
05
06
18
19
1:
1;
1+
1*
1)
1(
0&
0%
#680000
1$
0#
0"
0!
0?
0<
0>
1=
0F
0E
0D
0C
08
09
0:
0;
0+
0*
0)
0(
#685000
1!
1?
1D
1C
18
19
1)
1(
#690000
1"
0!
0?
1<
1E
0D
0C
1B
1A
1@
15
16
17
08
09
1:
1*
0)
0(
1'
1&
1%
#695000
1!
1?
1D
0B
07
19
1)
0'
#700000
1#
0"
0!
0?
0<
1>
0E
1C
1B
0A
06
17
18
0:
0*
1(
1'
0&
#705000
1!
1?
0C
1A
0@
05
16
08
0(
1&
0%
#710000
1"
0!
0?
1<
0D
1@
15
09
0)
1%
#715000
1!
1?
1F
1E
1D
1C
18
19
1:
1;
1+
1*
1)
1(
#720000
0$
0#
0"
0!
0?
0<
0>
0=
0E
0D
0C
0B
0A
0@
05
06
07
08
09
0:
0*
0)
0(
0'
0&
0%
#725000
1!
1?
1E
1D
1C
1@
15
18
19
1:
1*
1)
1(
1%
#730000
1"
0!
0?
1<
0F
0D
0C
1B
0@
05
17
08
09
0;
0+
0)
0(
1'
0%
#735000
1!
1?
1D
0B
07
19
1)
0'
#740000
1#
0"
0!
0?
0<
1>
0E
1C
1@
15
18
0:
0*
1(
1%
#745000
1!
1?
0C
1A
0@
05
16
08
0(
1&
0%
#750000
1"
0!
0?
1<
0D
1@
15
09
0)
1%
#755000
1!
1?
1F
1E
1D
1C
0A
0@
05
06
18
19
1:
1;
1+
1*
1)
1(
0&
0%
#760000
1$
0#
0"
0!
0?
0<
0>
1=
0F
0E
0D
0C
08
09
0:
0;
0+
0*
0)
0(
#765000
1!
1?
1D
1C
18
19
1)
1(
#770000
1"
0!
0?
1<
1E
0D
0C
1B
1A
1@
15
16
17
08
09
1:
1*
0)
0(
1'
1&
1%
#775000
1!
1?
1D
0B
07
19
1)
0'
#780000
1#
0"
0!
0?
0<
1>
0E
1C
1B
0A
06
17
18
0:
0*
1(
1'
0&
#785000
1!
1?
0C
1A
0@
05
16
08
0(
1&
0%
#790000
1"
0!
0?
1<
0D
1@
15
09
0)
1%
#795000
1!
1?
1F
1E
1D
1C
18
19
1:
1;
1+
1*
1)
1(
#800000
0$
0#
0"
0!
0?
0<
0>
0=
0E
0D
0C
0B
0A
0@
05
06
07
08
09
0:
0*
0)
0(
0'
0&
0%
#805000
1!
1?
1E
1D
1C
1@
15
18
19
1:
1*
1)
1(
1%
#810000
1"
0!
0?
1<
0F
0D
0C
1B
0@
05
17
08
09
0;
0+
0)
0(
1'
0%
#815000
1!
1?
1D
0B
07
19
1)
0'
#820000
1#
0"
0!
0?
0<
1>
0E
1C
1@
15
18
0:
0*
1(
1%
#825000
1!
1?
0C
1A
0@
05
16
08
0(
1&
0%
#830000
1"
0!
0?
1<
0D
1@
15
09
0)
1%
#835000
1!
1?
1F
1E
1D
1C
0A
0@
05
06
18
19
1:
1;
1+
1*
1)
1(
0&
0%
#840000
1$
0#
0"
0!
0?
0<
0>
1=
0F
0E
0D
0C
08
09
0:
0;
0+
0*
0)
0(
#845000
1!
1?
1D
1C
18
19
1)
1(
#850000
1"
0!
0?
1<
1E
0D
0C
1B
1A
1@
15
16
17
08
09
1:
1*
0)
0(
1'
1&
1%
#855000
1!
1?
1D
0B
07
19
1)
0'
#860000
1#
0"
0!
0?
0<
1>
0E
1C
1B
0A
06
17
18
0:
0*
1(
1'
0&
#865000
1!
1?
0C
1A
0@
05
16
08
0(
1&
0%
#870000
1"
0!
0?
1<
0D
1@
15
09
0)
1%
#875000
1!
1?
1F
1E
1D
1C
18
19
1:
1;
1+
1*
1)
1(
#880000
0$
0#
0"
0!
0?
0<
0>
0=
0E
0D
0C
0B
0A
0@
05
06
07
08
09
0:
0*
0)
0(
0'
0&
0%
#885000
1!
1?
1E
1D
1C
1@
15
18
19
1:
1*
1)
1(
1%
#890000
1"
0!
0?
1<
0F
0D
0C
1B
0@
05
17
08
09
0;
0+
0)
0(
1'
0%
#895000
1!
1?
1D
0B
07
19
1)
0'
#900000
1#
0"
0!
0?
0<
1>
0E
1C
1@
15
18
0:
0*
1(
1%
#905000
1!
1?
0C
1A
0@
05
16
08
0(
1&
0%
#910000
1"
0!
0?
1<
0D
1@
15
09
0)
1%
#915000
1!
1?
1F
1E
1D
1C
0A
0@
05
06
18
19
1:
1;
1+
1*
1)
1(
0&
0%
#920000
1$
0#
0"
0!
0?
0<
0>
1=
0F
0E
0D
0C
08
09
0:
0;
0+
0*
0)
0(
#925000
1!
1?
1D
1C
18
19
1)
1(
#930000
1"
0!
0?
1<
1E
0D
0C
1B
1A
1@
15
16
17
08
09
1:
1*
0)
0(
1'
1&
1%
#935000
1!
1?
1D
0B
07
19
1)
0'
#940000
1#
0"
0!
0?
0<
1>
0E
1C
1B
0A
06
17
18
0:
0*
1(
1'
0&
#945000
1!
1?
0C
1A
0@
05
16
08
0(
1&
0%
#950000
1"
0!
0?
1<
0D
1@
15
09
0)
1%
#955000
1!
1?
1F
1E
1D
1C
18
19
1:
1;
1+
1*
1)
1(
#960000
0$
0#
0"
0!
0?
0<
0>
0=
0E
0D
0C
0B
0A
0@
05
06
07
08
09
0:
0*
0)
0(
0'
0&
0%
#965000
1!
1?
1E
1D
1C
1@
15
18
19
1:
1*
1)
1(
1%
#970000
1"
0!
0?
1<
0F
0D
0C
1B
0@
05
17
08
09
0;
0+
0)
0(
1'
0%
#975000
1!
1?
1D
0B
07
19
1)
0'
#980000
1#
0"
0!
0?
0<
1>
0E
1C
1@
15
18
0:
0*
1(
1%
#985000
1!
1?
0C
1A
0@
05
16
08
0(
1&
0%
#990000
1"
0!
0?
1<
0D
1@
15
09
0)
1%
#995000
1!
1?
1F
1E
1D
1C
0A
0@
05
06
18
19
1:
1;
1+
1*
1)
1(
0&
0%
