Assignment62/excercise1/simulation/qsim/exercise1.msim.vcd
$comment
	File created using the following command:
		vcd file exercise1.msim.vcd -direction
$end
$date
	Fri Oct 20 09:45:55 2023
$end
$version
	ModelSim Version 2020.1
$end
$timescale
	1ps
$end

$scope module exercise1_vlg_vec_tst $end
$var reg 1 ! S0 $end
$var wire 1 " L0 $end
$var wire 1 # L1 $end

$scope module i1 $end
$var wire 1 $ gnd $end
$var wire 1 % vcc $end
$var wire 1 & unknown $end
$var tri1 1 ' devclrn $end
$var tri1 1 ( devpor $end
$var tri1 1 ) devoe $end
$var wire 1 * ~QUARTUS_CREATED_GND~I_combout $end
$var wire 1 + ~QUARTUS_CREATED_UNVM~~busy $end
$var wire 1 , ~QUARTUS_CREATED_ADC1~~eoc $end
$var wire 1 - L0~output_o $end
$var wire 1 . L1~output_o $end
$var wire 1 / S0~input_o $end
$var wire 1 0 S0~inputclkctrl_outclk $end
$var wire 1 1 inst~0_combout $end
$var wire 1 2 inst~q $end
$var wire 1 3 inst1~0_combout $end
$var wire 1 4 inst1~q $end
$upscope $end
$upscope $end
$enddefinitions $end
#0
$dumpvars
0!
0"
0#
0$
1%
x&
1'
1(
1)
0*
z+
z,
0-
0.
0/
00
11
02
03
04
$end
#10000
1!
1/
10
12
1-
1"
13
01
#20000
0!
0/
00
#30000
1!
1/
10
14
02
0-
1.
1#
0"
11
#40000
0!
0/
00
#50000
1!
1/
10
12
1-
1"
03
01
#60000
0!
0/
00
#70000
1!
1/
10
04
02
0-
0.
0#
0"
11
#80000
0!
0/
00
#90000
1!
1/
10
12
1-
1"
13
01
#100000
0!
0/
00
#110000
1!
1/
10
14
02
0-
1.
1#
0"
11
#120000
0!
0/
00
#130000
1!
1/
10
12
1-
1"
03
01
#140000
0!
0/
00
#150000
1!
1/
10
04
02
0-
0.
0#
0"
11
#160000
0!
0/
00
#170000
1!
1/
10
12
1-
1"
13
01
#180000
0!
0/
00
#190000
1!
1/
10
14
02
0-
1.
1#
0"
11
#200000
0!
0/
00
#210000
1!
1/
10
12
1-
1"
03
01
#220000
0!
0/
00
#230000
1!
1/
10
04
02
0-
0.
0#
0"
11
#240000
0!
0/
00
#250000
1!
1/
10
12
1-
1"
13
01
#260000
0!
0/
00
#270000
1!
1/
10
14
02
0-
1.
1#
0"
11
#280000
0!
0/
00
#290000
1!
1/
10
12
1-
1"
03
01
#300000
0!
0/
00
#310000
1!
1/
10
04
02
0-
0.
0#
0"
11
#320000
0!
0/
00
#330000
1!
1/
10
12
1-
1"
13
01
#340000
0!
0/
00
#350000
1!
1/
10
14
02
0-
1.
1#
0"
11
#360000
0!
0/
00
#370000
1!
1/
10
12
1-
1"
03
01
#380000
0!
0/
00
#390000
1!
1/
10
04
02
0-
0.
0#
0"
11
#400000
0!
0/
00
#410000
1!
1/
10
12
1-
1"
13
01
#420000
0!
0/
00
#430000
1!
1/
10
14
02
0-
1.
1#
0"
11
#440000
0!
0/
00
#450000
1!
1/
10
12
1-
1"
03
01
#460000
0!
0/
00
#470000
1!
1/
10
04
02
0-
0.
0#
0"
11
#480000
0!
0/
00
#490000
1!
1/
10
12
1-
1"
13
01
#500000
0!
0/
00
#510000
1!
1/
10
14
02
0-
1.
1#
0"
11
#520000
0!
0/
00
#530000
1!
1/
10
12
1-
1"
03
01
#540000
0!
0/
00
#550000
1!
1/
10
04
02
0-
0.
0#
0"
11
#560000
0!
0/
00
#570000
1!
1/
10
12
1-
1"
13
01
#580000
0!
0/
00
#590000
1!
1/
10
14
02
0-
1.
1#
0"
11
#600000
0!
0/
00
#610000
1!
1/
10
12
1-
1"
03
01
#620000
0!
0/
00
#630000
1!
1/
10
04
02
0-
0.
0#
0"
11
#640000
0!
0/
00
#650000
1!
1/
10
12
1-
1"
13
01
#660000
0!
0/
00
#670000
1!
1/
10
14
02
0-
1.
1#
0"
11
#680000
0!
0/
00
#690000
1!
1/
10
12
1-
1"
03
01
#700000
0!
0/
00
#710000
1!
1/
10
04
02
0-
0.
0#
0"
11
#720000
0!
0/
00
#730000
1!
1/
10
12
1-
1"
13
01
#740000
0!
0/
00
#750000
1!
1/
10
14
02
0-
1.
1#
0"
11
#760000
0!
0/
00
#770000
1!
1/
10
12
1-
1"
03
01
#780000
0!
0/
00
#790000
1!
1/
10
04
02
0-
0.
0#
0"
11
#800000
0!
0/
00
#810000
1!
1/
10
12
1-
1"
13
01
#820000
0!
0/
00
#830000
1!
1/
10
14
02
0-
1.
1#
0"
11
#840000
0!
0/
00
#850000
1!
1/
10
12
1-
1"
03
01
#860000
0!
0/
00
#870000
1!
1/
10
04
02
0-
0.
0#
0"
11
#880000
0!
0/
00
#890000
1!
1/
10
12
1-
1"
13
01
#900000
0!
0/
00
#910000
1!
1/
10
14
02
0-
1.
1#
0"
11
#920000
0!
0/
00
#930000
1!
1/
10
12
1-
1"
03
01
#940000
0!
0/
00
#950000
1!
1/
10
04
02
0-
0.
0#
0"
11
#960000
0!
0/
00
#970000
1!
1/
10
12
1-
1"
13
01
#980000
0!
0/
00
#990000
1!
1/
10
14
02
0-
1.
1#
0"
11
