Assignment61/excercise1/simulation/qsim/exercise1.msim.vcd
$comment
	File created using the following command:
		vcd file exercise1.msim.vcd -direction
$end
$date
	Fri Oct 20 09:33:23 2023
$end
$version
	ModelSim Version 2020.1
$end
$timescale
	1ps
$end

$scope module exercise1_vlg_vec_tst $end
$var reg 1 ! S0 $end
$var wire 1 " L0 $end
$var wire 1 # L1 $end

$scope module i1 $end
$var wire 1 $ gnd $end
$var wire 1 % vcc $end
$var wire 1 & unknown $end
$var tri1 1 ' devclrn $end
$var tri1 1 ( devpor $end
$var tri1 1 ) devoe $end
$var wire 1 * ~QUARTUS_CREATED_GND~I_combout $end
$var wire 1 + ~QUARTUS_CREATED_UNVM~~busy $end
$var wire 1 , ~QUARTUS_CREATED_ADC1~~eoc $end
$var wire 1 - L0~output_o $end
$var wire 1 . L1~output_o $end
$var wire 1 / S0~input_o $end
$var wire 1 0 inst~0_combout $end
$var wire 1 1 inst~q $end
$upscope $end
$upscope $end
$enddefinitions $end
#0
$dumpvars
0!
0"
0#
0$
1%
x&
1'
1(
1)
0*
z+
z,
0-
0.
0/
10
01
$end
#10000
1!
1/
1-
1"
11
1.
1#
00
#20000
0!
0/
0-
0"
#30000
1!
1/
1-
1"
01
0.
0#
10
#40000
0!
0/
0-
0"
#50000
1!
1/
1-
1"
11
1.
1#
00
#60000
0!
0/
0-
0"
#70000
1!
1/
1-
1"
01
0.
0#
10
#80000
0!
0/
0-
0"
#90000
1!
1/
1-
1"
11
1.
1#
00
#100000
0!
0/
0-
0"
#110000
1!
1/
1-
1"
01
0.
0#
10
#120000
0!
0/
0-
0"
#130000
1!
1/
1-
1"
11
1.
1#
00
#140000
0!
0/
0-
0"
#150000
1!
1/
1-
1"
01
0.
0#
10
#160000
0!
0/
0-
0"
#170000
1!
1/
1-
1"
11
1.
1#
00
#180000
0!
0/
0-
0"
#190000
1!
1/
1-
1"
01
0.
0#
10
#200000
0!
0/
0-
0"
#210000
1!
1/
1-
1"
11
1.
1#
00
#220000
0!
0/
0-
0"
#230000
1!
1/
1-
1"
01
0.
0#
10
#240000
0!
0/
0-
0"
#250000
1!
1/
1-
1"
11
1.
1#
00
#260000
0!
0/
0-
0"
#270000
1!
1/
1-
1"
01
0.
0#
10
#280000
0!
0/
0-
0"
#290000
1!
1/
1-
1"
11
1.
1#
00
#300000
0!
0/
0-
0"
#310000
1!
1/
1-
1"
01
0.
0#
10
#320000
0!
0/
0-
0"
#330000
1!
1/
1-
1"
11
1.
1#
00
#340000
0!
0/
0-
0"
#350000
1!
1/
1-
1"
01
0.
0#
10
#360000
0!
0/
0-
0"
#370000
1!
1/
1-
1"
11
1.
1#
00
#380000
0!
0/
0-
0"
#390000
1!
1/
1-
1"
01
0.
0#
10
#400000
0!
0/
0-
0"
#410000
1!
1/
1-
1"
11
1.
1#
00
#420000
0!
0/
0-
0"
#430000
1!
1/
1-
1"
01
0.
0#
10
#440000
0!
0/
0-
0"
#450000
1!
1/
1-
1"
11
1.
1#
00
#460000
0!
0/
0-
0"
#470000
1!
1/
1-
1"
01
0.
0#
10
#480000
0!
0/
0-
0"
#490000
1!
1/
1-
1"
11
1.
1#
00
#500000
0!
0/
0-
0"
#510000
1!
1/
1-
1"
01
0.
0#
10
#520000
0!
0/
0-
0"
#530000
1!
1/
1-
1"
11
1.
1#
00
#540000
0!
0/
0-
0"
#550000
1!
1/
1-
1"
01
0.
0#
10
#560000
0!
0/
0-
0"
#570000
1!
1/
1-
1"
11
1.
1#
00
#580000
0!
0/
0-
0"
#590000
1!
1/
1-
1"
01
0.
0#
10
#600000
0!
0/
0-
0"
#610000
1!
1/
1-
1"
11
1.
1#
00
#620000
0!
0/
0-
0"
#630000
1!
1/
1-
1"
01
0.
0#
10
#640000
0!
0/
0-
0"
#650000
1!
1/
1-
1"
11
1.
1#
00
#660000
0!
0/
0-
0"
#670000
1!
1/
1-
1"
01
0.
0#
10
#680000
0!
0/
0-
0"
#690000
1!
1/
1-
1"
11
1.
1#
00
#700000
0!
0/
0-
0"
#710000
1!
1/
1-
1"
01
0.
0#
10
#720000
0!
0/
0-
0"
#730000
1!
1/
1-
1"
11
1.
1#
00
#740000
0!
0/
0-
0"
#750000
1!
1/
1-
1"
01
0.
0#
10
#760000
0!
0/
0-
0"
#770000
1!
1/
1-
1"
11
1.
1#
00
#780000
0!
0/
0-
0"
#790000
1!
1/
1-
1"
01
0.
0#
10
#800000
0!
0/
0-
0"
#810000
1!
1/
1-
1"
11
1.
1#
00
#820000
0!
0/
0-
0"
#830000
1!
1/
1-
1"
01
0.
0#
10
#840000
0!
0/
0-
0"
#850000
1!
1/
1-
1"
11
1.
1#
00
#860000
0!
0/
0-
0"
#870000
1!
1/
1-
1"
01
0.
0#
10
#880000
0!
0/
0-
0"
#890000
1!
1/
1-
1"
11
1.
1#
00
#900000
0!
0/
0-
0"
#910000
1!
1/
1-
1"
01
0.
0#
10
#920000
0!
0/
0-
0"
#930000
1!
1/
1-
1"
11
1.
1#
00
#940000
0!
0/
0-
0"
#950000
1!
1/
1-
1"
01
0.
0#
10
#960000
0!
0/
0-
0"
#970000
1!
1/
1-
1"
11
1.
1#
00
#980000
0!
0/
0-
0"
#990000
1!
1/
1-
1"
01
0.
0#
10
